solid CAse 2016 V2
facet normal -0.0 -1.0 -0.0
outer loop
vertex 872.6351918620275 -1056.5110049843038 0.4000000000000001
vertex 802.6351918620275 -1056.5110049843038 0.0
vertex 872.6351918620275 -1056.5110049843038 0.0
endloop
endfacet
facet normal -0.0 -1.0 -0.0
outer loop
vertex 802.6351918620275 -1056.5110049843038 0.0
vertex 872.6351918620275 -1056.5110049843038 0.4000000000000001
vertex 802.6351918620275 -1056.5110049843038 0.4000000000000001
endloop
endfacet
facet normal -1.0 0.0 0.0
outer loop
vertex 802.6351918620275 -986.5110049843039 0.4000000000000001
vertex 802.6351918620275 -1056.5110049843038 0.0
vertex 802.6351918620275 -1056.5110049843038 0.4000000000000001
endloop
endfacet
facet normal -1.0 0.0 0.0
outer loop
vertex 802.6351918620275 -1056.5110049843038 0.0
vertex 802.6351918620275 -986.5110049843039 0.4000000000000001
vertex 802.6351918620275 -986.5110049843039 0.0
endloop
endfacet
facet normal -0.0 1.0 0.0
outer loop
vertex 802.6351918620275 -986.5110049843039 0.4000000000000001
vertex 872.6351918620275 -986.5110049843039 0.0
vertex 802.6351918620275 -986.5110049843039 0.0
endloop
endfacet
facet normal -0.0 1.0 0.0
outer loop
vertex 872.6351918620275 -986.5110049843039 0.0
vertex 802.6351918620275 -986.5110049843039 0.4000000000000001
vertex 872.6351918620275 -986.5110049843039 0.4000000000000001
endloop
endfacet
facet normal 1.0 0.0 0.0
outer loop
vertex 872.6351918620275 -986.5110049843039 0.0
vertex 872.6351918620275 -1056.5110049843038 0.4000000000000001
vertex 872.6351918620275 -1056.5110049843038 0.0
endloop
endfacet
facet normal 1.0 0.0 0.0
outer loop
vertex 872.6351918620275 -1056.5110049843038 0.4000000000000001
vertex 872.6351918620275 -986.5110049843039 0.0
vertex 872.6351918620275 -986.5110049843039 0.4000000000000001
endloop
endfacet
facet normal -0.0 -0.0 1.0
outer loop
vertex 872.6351918620275 -1056.5110049843038 0.4000000000000001
vertex 802.6351918620275 -986.5110049843039 0.4000000000000001
vertex 802.6351918620275 -1056.5110049843038 0.4000000000000001
endloop
endfacet
facet normal -0.0 -0.0 1.0
outer loop
vertex 802.6351918620275 -986.5110049843039 0.4000000000000001
vertex 872.6351918620275 -1056.5110049843038 0.4000000000000001
vertex 872.6351918620275 -986.5110049843039 0.4000000000000001
endloop
endfacet
facet normal 0.0 0.0 -1.0
outer loop
vertex 872.6351918620275 -986.5110049843039 0.0
vertex 802.6351918620275 -1056.5110049843038 0.0
vertex 802.6351918620275 -986.5110049843039 0.0
endloop
endfacet
facet normal 0.0 0.0 -1.0
outer loop
vertex 802.6351918620275 -1056.5110049843038 0.0
vertex 872.6351918620275 -986.5110049843039 0.0
vertex 872.6351918620275 -1056.5110049843038 0.0
endloop
endfacet
endsolid CAse 2016 V2
