solid OpenSCAD_Model
  facet normal -0.060683 0.964527 0.256914
    outer loop
      vertex -2.62145 13.9866 0.186828
      vertex 0.0570993 14.0261 0.671169
      vertex 0.0570993 14.1552 0.186828
    endloop
  endfacet
  facet normal -0.060683 0.964527 0.256914
    outer loop
      vertex 0.0570993 14.0261 0.671169
      vertex -2.62145 13.9866 0.186828
      vertex -2.52103 13.4602 2.18683
    endloop
  endfacet
  facet normal -0.0606836 0.964527 0.256913
    outer loop
      vertex 0.0570993 13.6224 2.18683
      vertex 0.0570993 14.0261 0.671169
      vertex -2.52103 13.4602 2.18683
    endloop
  endfacet
  facet normal -0.0445755 0.708499 0.704303
    outer loop
      vertex -2.52103 13.4602 2.18683
      vertex 0.0570993 13.2507 2.56076
      vertex 0.0570993 13.6224 2.18683
    endloop
  endfacet
  facet normal -0.0445754 0.708499 0.704302
    outer loop
      vertex 0.0570993 13.2507 2.56076
      vertex -2.52103 13.4602 2.18683
      vertex -2.24668 12.0221 3.65093
    endloop
  endfacet
  facet normal -0.0445754 0.708499 0.704302
    outer loop
      vertex 0.0570993 12.167 3.65093
      vertex 0.0570993 13.2507 2.56076
      vertex -2.24668 12.0221 3.65093
    endloop
  endfacet
  facet normal -0.0163722 0.260223 0.96541
    outer loop
      vertex -2.24668 12.0221 3.65093
      vertex 0.0570993 11.6386 3.79336
      vertex 0.0570993 12.167 3.65093
    endloop
  endfacet
  facet normal -0.0163723 0.260223 0.96541
    outer loop
      vertex 0.0570993 11.6386 3.79336
      vertex -2.24668 12.0221 3.65093
      vertex -1.87192 10.0575 4.18683
    endloop
  endfacet
  facet normal -0.0163718 0.260222 0.96541
    outer loop
      vertex 0.0570993 10.1789 4.18683
      vertex 0.0570993 11.6386 3.79336
      vertex -1.87192 10.0575 4.18683
    endloop
  endfacet
  facet normal 0.0163718 -0.260223 0.96541
    outer loop
      vertex -1.87192 10.0575 4.18683
      vertex 0.0570993 9.64353 4.04253
      vertex 0.0570993 10.1789 4.18683
    endloop
  endfacet
  facet normal 0.0163719 -0.260223 0.96541
    outer loop
      vertex 0.0570993 9.64353 4.04253
      vertex -1.87192 10.0575 4.18683
      vertex -1.49716 8.09291 3.65093
    endloop
  endfacet
  facet normal 0.0163714 -0.260222 0.96541
    outer loop
      vertex 0.0570993 8.1907 3.65093
      vertex 0.0570993 9.64353 4.04253
      vertex -1.49716 8.09291 3.65093
    endloop
  endfacet
  facet normal 0.0445749 -0.7085 0.704302
    outer loop
      vertex -1.49716 8.09291 3.65093
      vertex 0.0570993 7.8139 3.27188
      vertex 0.0570993 8.1907 3.65093
    endloop
  endfacet
  facet normal 0.044575 -0.708499 0.704302
    outer loop
      vertex 0.0570993 7.8139 3.27188
      vertex -1.49716 8.09291 3.65093
      vertex -1.22281 6.65475 2.18683
    endloop
  endfacet
  facet normal 0.0445751 -0.708499 0.704302
    outer loop
      vertex 0.0570993 6.73527 2.18683
      vertex 0.0570993 7.8139 3.27188
      vertex -1.22281 6.65475 2.18683
    endloop
  endfacet
  facet normal 0.0606831 -0.964527 0.256914
    outer loop
      vertex -1.22281 6.65475 2.18683
      vertex 0.0570993 6.61198 1.72395
      vertex 0.0570993 6.73527 2.18683
    endloop
  endfacet
  facet normal 0.060683 -0.964527 0.256913
    outer loop
      vertex 0.0570993 6.61198 1.72395
      vertex -1.22281 6.65475 2.18683
      vertex -1.1224 6.12834 0.186828
    endloop
  endfacet
  facet normal 0.0606835 -0.964527 0.256913
    outer loop
      vertex 0.0570993 6.20255 0.186828
      vertex 0.0570993 6.61198 1.72395
      vertex -1.1224 6.12834 0.186828
    endloop
  endfacet
  facet normal 0.0606835 -0.964527 -0.256913
    outer loop
      vertex -1.1224 6.12834 0.186828
      vertex 0.0570993 6.30951 -0.214729
      vertex 0.0570993 6.20255 0.186828
    endloop
  endfacet
  facet normal 0.0606834 -0.964527 -0.256914
    outer loop
      vertex 0.0570993 6.30951 -0.214729
      vertex -1.1224 6.12834 0.186828
      vertex -1.22281 6.65475 -1.81317
    endloop
  endfacet
  facet normal 0.0606831 -0.964527 -0.256913
    outer loop
      vertex 0.0570993 6.73527 -1.81317
      vertex 0.0570993 6.30951 -0.214729
      vertex -1.22281 6.65475 -1.81317
    endloop
  endfacet
  facet normal 0.0445751 -0.708499 -0.704302
    outer loop
      vertex -1.22281 6.65475 -1.81317
      vertex 0.0570993 7.006 -2.08552
      vertex 0.0570993 6.73527 -1.81317
    endloop
  endfacet
  facet normal 0.0445752 -0.7085 -0.704302
    outer loop
      vertex 0.0570993 7.006 -2.08552
      vertex -1.22281 6.65475 -1.81317
      vertex -1.49716 8.09291 -3.27727
    endloop
  endfacet
  facet normal 0.0445752 -0.708499 -0.704302
    outer loop
      vertex 0.0570993 8.1907 -3.27727
      vertex 0.0570993 7.006 -2.08552
      vertex -1.49716 8.09291 -3.27727
    endloop
  endfacet
  facet normal 0.0163719 -0.260222 -0.96541
    outer loop
      vertex -1.49716 8.09291 -3.27727
      vertex 0.0570993 8.56481 -3.37811
      vertex 0.0570993 8.1907 -3.27727
    endloop
  endfacet
  facet normal 0.0163719 -0.260222 -0.96541
    outer loop
      vertex 0.0570993 8.56481 -3.37811
      vertex -1.49716 8.09291 -3.27727
      vertex -1.87192 10.0575 -3.81317
    endloop
  endfacet
  facet normal 0.0163718 -0.260222 -0.96541
    outer loop
      vertex 0.0570993 10.1789 -3.81317
      vertex 0.0570993 8.56481 -3.37811
      vertex -1.87192 10.0575 -3.81317
    endloop
  endfacet
  facet normal -0.0163718 0.260222 -0.96541
    outer loop
      vertex -1.87192 10.0575 -3.81317
      vertex 0.0570993 10.5747 -3.70647
      vertex 0.0570993 10.1789 -3.81317
    endloop
  endfacet
  facet normal -0.0163719 0.260222 -0.96541
    outer loop
      vertex 0.0570993 10.5747 -3.70647
      vertex -1.87192 10.0575 -3.81317
      vertex -2.24668 12.0221 -3.27727
    endloop
  endfacet
  facet normal -0.0163719 0.260222 -0.96541
    outer loop
      vertex 0.0570993 12.167 -3.27727
      vertex 0.0570993 10.5747 -3.70647
      vertex -2.24668 12.0221 -3.27727
    endloop
  endfacet
  facet normal -0.0445752 0.7085 -0.704301
    outer loop
      vertex -2.24668 12.0221 -3.27727
      vertex 0.0570993 12.4772 -2.96524
      vertex 0.0570993 12.167 -3.27727
    endloop
  endfacet
  facet normal -0.044575 0.7085 -0.704302
    outer loop
      vertex 0.0570993 12.4772 -2.96524
      vertex -2.24668 12.0221 -3.27727
      vertex -2.52103 13.4602 -1.81317
    endloop
  endfacet
  facet normal -0.0445755 0.708499 -0.704303
    outer loop
      vertex 0.0570993 13.6224 -1.81317
      vertex 0.0570993 12.4772 -2.96524
      vertex -2.52103 13.4602 -1.81317
    endloop
  endfacet
  facet normal -0.0606836 0.964527 -0.256913
    outer loop
      vertex -2.52103 13.4602 -1.81317
      vertex 0.0570993 13.7438 -1.35755
      vertex 0.0570993 13.6224 -1.81317
    endloop
  endfacet
  facet normal -0.0606834 0.964527 -0.256914
    outer loop
      vertex 0.0570993 13.7438 -1.35755
      vertex -2.52103 13.4602 -1.81317
      vertex -2.62145 13.9866 0.186828
    endloop
  endfacet
  facet normal -0.060683 0.964527 -0.256913
    outer loop
      vertex 0.0570993 14.1552 0.186828
      vertex 0.0570993 13.7438 -1.35755
      vertex -2.62145 13.9866 0.186828
    endloop
  endfacet
  facet normal -0.298645 0.919134 0.256913
    outer loop
      vertex -2.62145 13.9866 0.186828
      vertex -4.59116 13.3466 0.186828
      vertex -4.59116 12.9925 1.45377
    endloop
  endfacet
  facet normal -0.298644 0.919134 0.256914
    outer loop
      vertex -2.52103 13.4602 2.18683
      vertex -4.59116 12.9925 1.45377
      vertex -4.59116 12.7876 2.18683
    endloop
  endfacet
  facet normal -0.298644 0.919134 0.256914
    outer loop
      vertex -4.59116 12.9925 1.45377
      vertex -2.52103 13.4602 2.18683
      vertex -2.62145 13.9866 0.186828
    endloop
  endfacet
  facet normal -0.219371 0.675155 0.704303
    outer loop
      vertex -2.52103 13.4602 2.18683
      vertex -4.59116 12.7876 2.18683
      vertex -4.59116 11.5652 3.35867
    endloop
  endfacet
  facet normal -0.219371 0.675155 0.704302
    outer loop
      vertex -4.59116 11.5652 3.35867
      vertex -2.24668 12.0221 3.65093
      vertex -2.52103 13.4602 2.18683
    endloop
  endfacet
  facet normal -0.219371 0.675155 0.704302
    outer loop
      vertex -2.24668 12.0221 3.65093
      vertex -4.59116 11.5652 3.35867
      vertex -4.59116 11.2603 3.65093
    endloop
  endfacet
  facet normal -0.0805723 0.247976 0.96541
    outer loop
      vertex -4.59116 9.99535 3.97584
      vertex -2.24668 12.0221 3.65093
      vertex -4.59116 11.2603 3.65093
    endloop
  endfacet
  facet normal -0.0805722 0.247976 0.96541
    outer loop
      vertex -2.24668 12.0221 3.65093
      vertex -4.59116 9.99535 3.97584
      vertex -4.2559 9.28289 4.18683
    endloop
  endfacet
  facet normal -0.0805722 0.247976 0.96541
    outer loop
      vertex -1.87192 10.0575 4.18683
      vertex -2.24668 12.0221 3.65093
      vertex -4.2559 9.28289 4.18683
    endloop
  endfacet
  facet normal 0.0805722 -0.247976 0.96541
    outer loop
      vertex -3.40434 7.47323 3.65093
      vertex -1.87192 10.0575 4.18683
      vertex -4.2559 9.28289 4.18683
    endloop
  endfacet
  facet normal 0.0805723 -0.247976 0.96541
    outer loop
      vertex -1.49716 8.09291 3.65093
      vertex -1.87192 10.0575 4.18683
      vertex -3.40434 7.47323 3.65093
    endloop
  endfacet
  facet normal 0.219371 -0.675155 0.704302
    outer loop
      vertex -2.78096 6.14847 2.18683
      vertex -1.49716 8.09291 3.65093
      vertex -3.40434 7.47323 3.65093
    endloop
  endfacet
  facet normal 0.219371 -0.675155 0.704302
    outer loop
      vertex -1.22281 6.65475 2.18683
      vertex -1.49716 8.09291 3.65093
      vertex -2.78096 6.14847 2.18683
    endloop
  endfacet
  facet normal 0.298645 -0.919134 0.256914
    outer loop
      vertex -2.55278 5.66358 0.186828
      vertex -1.22281 6.65475 2.18683
      vertex -2.78096 6.14847 2.18683
    endloop
  endfacet
  facet normal 0.298645 -0.919134 0.256913
    outer loop
      vertex -1.1224 6.12834 0.186828
      vertex -1.22281 6.65475 2.18683
      vertex -2.55278 5.66358 0.186828
    endloop
  endfacet
  facet normal 0.298645 -0.919134 -0.256914
    outer loop
      vertex -1.1224 6.12834 0.186828
      vertex -2.55278 5.66358 0.186828
      vertex -2.78096 6.14847 -1.81317
    endloop
  endfacet
  facet normal 0.298645 -0.919134 -0.256914
    outer loop
      vertex -1.22281 6.65475 -1.81317
      vertex -1.1224 6.12834 0.186828
      vertex -2.78096 6.14847 -1.81317
    endloop
  endfacet
  facet normal 0.219371 -0.675155 -0.704302
    outer loop
      vertex -1.22281 6.65475 -1.81317
      vertex -2.78096 6.14847 -1.81317
      vertex -3.40434 7.47323 -3.27727
    endloop
  endfacet
  facet normal 0.219371 -0.675155 -0.704302
    outer loop
      vertex -1.49716 8.09291 -3.27727
      vertex -1.22281 6.65475 -1.81317
      vertex -3.40434 7.47323 -3.27727
    endloop
  endfacet
  facet normal 0.0805718 -0.247976 -0.96541
    outer loop
      vertex -1.49716 8.09291 -3.27727
      vertex -3.40434 7.47323 -3.27727
      vertex -4.2559 9.28289 -3.81317
    endloop
  endfacet
  facet normal 0.0805721 -0.247975 -0.96541
    outer loop
      vertex -1.87192 10.0575 -3.81317
      vertex -1.49716 8.09291 -3.27727
      vertex -4.2559 9.28289 -3.81317
    endloop
  endfacet
  facet normal -0.0805722 0.247976 -0.96541
    outer loop
      vertex -4.59116 9.99535 -3.60219
      vertex -1.87192 10.0575 -3.81317
      vertex -4.2559 9.28289 -3.81317
    endloop
  endfacet
  facet normal -0.0805722 0.247976 -0.96541
    outer loop
      vertex -1.87192 10.0575 -3.81317
      vertex -4.59116 9.99535 -3.60219
      vertex -4.59116 10.9274 -3.36279
    endloop
  endfacet
  facet normal -0.0805724 0.247975 -0.96541
    outer loop
      vertex -4.59116 10.9274 -3.36279
      vertex -2.24668 12.0221 -3.27727
      vertex -1.87192 10.0575 -3.81317
    endloop
  endfacet
  facet normal -0.0805724 0.247975 -0.96541
    outer loop
      vertex -2.24668 12.0221 -3.27727
      vertex -4.59116 10.9274 -3.36279
      vertex -4.59116 11.2603 -3.27727
    endloop
  endfacet
  facet normal -0.219371 0.675155 -0.704303
    outer loop
      vertex -4.59116 12.288 -2.29208
      vertex -2.24668 12.0221 -3.27727
      vertex -4.59116 11.2603 -3.27727
    endloop
  endfacet
  facet normal -0.219371 0.675156 -0.704302
    outer loop
      vertex -4.59116 12.7876 -1.81317
      vertex -2.24668 12.0221 -3.27727
      vertex -4.59116 12.288 -2.29208
    endloop
  endfacet
  facet normal -0.219371 0.675155 -0.704302
    outer loop
      vertex -2.24668 12.0221 -3.27727
      vertex -4.59116 12.7876 -1.81317
      vertex -2.52103 13.4602 -1.81317
    endloop
  endfacet
  facet normal -0.298645 0.919134 -0.256914
    outer loop
      vertex -4.59116 13.1242 -0.608903
      vertex -2.52103 13.4602 -1.81317
      vertex -4.59116 12.7876 -1.81317
    endloop
  endfacet
  facet normal -0.298645 0.919134 -0.256914
    outer loop
      vertex -2.62145 13.9866 0.186828
      vertex -4.59116 13.1242 -0.608903
      vertex -4.59116 13.3466 0.186828
    endloop
  endfacet
  facet normal -0.298645 0.919134 -0.256914
    outer loop
      vertex -4.59116 13.1242 -0.608903
      vertex -2.62145 13.9866 0.186828
      vertex -2.52103 13.4602 -1.81317
    endloop
  endfacet
  facet normal -0.13971 0.220148 0.96541
    outer loop
      vertex -4.2559 9.28289 4.18683
      vertex -4.59116 9.99535 3.97584
      vertex -4.59116 9.07012 4.18683
    endloop
  endfacet
  facet normal 0.13971 -0.220148 0.96541
    outer loop
      vertex -4.2559 9.28289 4.18683
      vertex -4.59116 9.07012 4.18683
      vertex -4.59116 8.13395 3.97335
    endloop
  endfacet
  facet normal 0.13971 -0.220148 0.96541
    outer loop
      vertex -4.59116 8.13395 3.97335
      vertex -3.40434 7.47323 3.65093
      vertex -4.2559 9.28289 4.18683
    endloop
  endfacet
  facet normal 0.13971 -0.220148 0.96541
    outer loop
      vertex -3.40434 7.47323 3.65093
      vertex -4.59116 8.13395 3.97335
      vertex -4.59116 6.72006 3.65093
    endloop
  endfacet
  facet normal 0.380383 -0.599389 0.704303
    outer loop
      vertex -4.59116 6.72006 3.65093
      vertex -4.16425 5.27061 2.18683
      vertex -3.40434 7.47323 3.65093
    endloop
  endfacet
  facet normal 0.380383 -0.599389 0.704303
    outer loop
      vertex -4.16425 5.27061 2.18683
      vertex -4.59116 6.72006 3.65093
      vertex -4.59116 5.78666 2.85658
    endloop
  endfacet
  facet normal 0.380383 -0.599389 0.704302
    outer loop
      vertex -2.78096 6.14847 2.18683
      vertex -3.40434 7.47323 3.65093
      vertex -4.16425 5.27061 2.18683
    endloop
  endfacet
  facet normal 0.517841 -0.815988 0.256913
    outer loop
      vertex -3.82265 4.8577 0.186828
      vertex -2.78096 6.14847 2.18683
      vertex -4.16425 5.27061 2.18683
    endloop
  endfacet
  facet normal 0.517841 -0.815988 0.256913
    outer loop
      vertex -2.55278 5.66358 0.186828
      vertex -2.78096 6.14847 2.18683
      vertex -3.82265 4.8577 0.186828
    endloop
  endfacet
  facet normal 0.517841 -0.815988 -0.256913
    outer loop
      vertex -2.55278 5.66358 0.186828
      vertex -3.82265 4.8577 0.186828
      vertex -4.16425 5.27061 -1.81317
    endloop
  endfacet
  facet normal 0.517841 -0.815988 -0.256914
    outer loop
      vertex -2.78096 6.14847 -1.81317
      vertex -2.55278 5.66358 0.186828
      vertex -4.16425 5.27061 -1.81317
    endloop
  endfacet
  facet normal 0.380383 -0.599389 -0.704302
    outer loop
      vertex -4.59116 6.34402 -2.95726
      vertex -4.16425 5.27061 -1.81317
      vertex -4.59116 5.78666 -2.48292
    endloop
  endfacet
  facet normal 0.380383 -0.599389 -0.704302
    outer loop
      vertex -4.16425 5.27061 -1.81317
      vertex -4.59116 6.34402 -2.95726
      vertex -2.78096 6.14847 -1.81317
    endloop
  endfacet
  facet normal 0.380383 -0.599389 -0.704302
    outer loop
      vertex -4.59116 6.72006 -3.27727
      vertex -2.78096 6.14847 -1.81317
      vertex -4.59116 6.34402 -2.95726
    endloop
  endfacet
  facet normal 0.380383 -0.599389 -0.704302
    outer loop
      vertex -2.78096 6.14847 -1.81317
      vertex -4.59116 6.72006 -3.27727
      vertex -3.40434 7.47323 -3.27727
    endloop
  endfacet
  facet normal 0.13971 -0.220147 -0.96541
    outer loop
      vertex -4.59116 7.65978 -3.49156
      vertex -3.40434 7.47323 -3.27727
      vertex -4.59116 6.72006 -3.27727
    endloop
  endfacet
  facet normal 0.13971 -0.220148 -0.96541
    outer loop
      vertex -4.59116 7.65978 -3.49156
      vertex -4.2559 9.28289 -3.81317
      vertex -3.40434 7.47323 -3.27727
    endloop
  endfacet
  facet normal 0.13971 -0.220148 -0.96541
    outer loop
      vertex -4.2559 9.28289 -3.81317
      vertex -4.59116 7.65978 -3.49156
      vertex -4.59116 9.07012 -3.81317
    endloop
  endfacet
  facet normal -0.13971 0.220148 -0.96541
    outer loop
      vertex -4.59116 9.30245 -3.76019
      vertex -4.2559 9.28289 -3.81317
      vertex -4.59116 9.07012 -3.81317
    endloop
  endfacet
  facet normal -0.13971 0.220148 -0.96541
    outer loop
      vertex -4.59116 9.99535 -3.60219
      vertex -4.2559 9.28289 -3.81317
      vertex -4.59116 9.30245 -3.76019
    endloop
  endfacet
  facet normal 0.517495 -0.48596 0.704303
    outer loop
      vertex -4.16425 5.27061 2.18683
      vertex -4.59116 5.78666 2.85658
      vertex -4.59116 4.816 2.18683
    endloop
  endfacet
  facet normal 0.704501 -0.661569 0.256913
    outer loop
      vertex -4.16425 5.27061 2.18683
      vertex -4.59116 4.816 2.18683
      vertex -4.59116 4.33403 0.945733
    endloop
  endfacet
  facet normal 0.704501 -0.661569 0.256913
    outer loop
      vertex -4.59116 4.33403 0.945733
      vertex -3.82265 4.8577 0.186828
      vertex -4.16425 5.27061 2.18683
    endloop
  endfacet
  facet normal 0.704501 -0.661569 0.256913
    outer loop
      vertex -3.82265 4.8577 0.186828
      vertex -4.59116 4.33403 0.945733
      vertex -4.59116 4.03932 0.186828
    endloop
  endfacet
  facet normal 0.704501 -0.661569 -0.256913
    outer loop
      vertex -4.59116 4.44727 -0.863686
      vertex -3.82265 4.8577 0.186828
      vertex -4.59116 4.03932 0.186828
    endloop
  endfacet
  facet normal 0.704501 -0.661569 -0.256913
    outer loop
      vertex -4.59116 4.44727 -0.863686
      vertex -4.16425 5.27061 -1.81317
      vertex -3.82265 4.8577 0.186828
    endloop
  endfacet
  facet normal 0.704501 -0.661569 -0.256914
    outer loop
      vertex -4.16425 5.27061 -1.81317
      vertex -4.59116 4.44727 -0.863686
      vertex -4.59116 4.816 -1.81317
    endloop
  endfacet
  facet normal 0.517495 -0.48596 -0.704302
    outer loop
      vertex -4.59116 5.20883 -2.08422
      vertex -4.16425 5.27061 -1.81317
      vertex -4.59116 4.816 -1.81317
    endloop
  endfacet
  facet normal 0.517495 -0.48596 -0.704302
    outer loop
      vertex -4.59116 5.78666 -2.48292
      vertex -4.16425 5.27061 -1.81317
      vertex -4.59116 5.20883 -2.08422
    endloop
  endfacet
  facet normal 0.517495 0.48596 0.704302
    outer loop
      vertex -4.16425 -4.80138 2.18683
      vertex -4.59116 -4.73959 2.45788
      vertex -4.59116 -5.31742 2.85658
    endloop
  endfacet
  facet normal 0.517495 0.485959 0.704303
    outer loop
      vertex -4.16425 -4.80138 2.18683
      vertex -4.59116 -4.34676 2.18683
      vertex -4.59116 -4.73959 2.45788
    endloop
  endfacet
  facet normal 0.704501 0.661569 0.256913
    outer loop
      vertex -4.16425 -4.80138 2.18683
      vertex -4.59116 -3.97803 1.23734
      vertex -4.59116 -4.34676 2.18683
    endloop
  endfacet
  facet normal 0.704501 0.661569 0.256914
    outer loop
      vertex -4.59116 -3.97803 1.23734
      vertex -4.16425 -4.80138 2.18683
      vertex -3.82265 -4.38846 0.186828
    endloop
  endfacet
  facet normal 0.704501 0.661569 0.256913
    outer loop
      vertex -3.82265 -4.38846 0.186828
      vertex -4.59116 -3.57008 0.186828
      vertex -4.59116 -3.97803 1.23734
    endloop
  endfacet
  facet normal 0.704501 0.661569 -0.256914
    outer loop
      vertex -3.82265 -4.38846 0.186828
      vertex -4.59116 -3.86479 -0.572077
      vertex -4.59116 -3.57008 0.186828
    endloop
  endfacet
  facet normal 0.704501 0.661569 -0.256914
    outer loop
      vertex -4.59116 -3.86479 -0.572077
      vertex -3.82265 -4.38846 0.186828
      vertex -4.16425 -4.80138 -1.81317
    endloop
  endfacet
  facet normal 0.704501 0.661569 -0.256914
    outer loop
      vertex -4.59116 -3.86479 -0.572077
      vertex -4.16425 -4.80138 -1.81317
      vertex -4.59116 -4.34676 -1.81317
    endloop
  endfacet
  facet normal 0.517496 0.48596 -0.704302
    outer loop
      vertex -4.59116 -4.34676 -1.81317
      vertex -4.16425 -4.80138 -1.81317
      vertex -4.59116 -5.31742 -2.48292
    endloop
  endfacet
  facet normal -0.139711 -0.220147 0.96541
    outer loop
      vertex -4.2559 -8.81365 4.18683
      vertex -4.59116 -8.83321 4.13385
      vertex -4.59116 -9.52611 3.97584
    endloop
  endfacet
  facet normal -0.13971 -0.220149 0.96541
    outer loop
      vertex -4.2559 -8.81365 4.18683
      vertex -4.59116 -8.60089 4.18683
      vertex -4.59116 -8.83321 4.13385
    endloop
  endfacet
  facet normal 0.13971 0.220148 0.96541
    outer loop
      vertex -4.59116 -7.19054 3.86522
      vertex -4.2559 -8.81365 4.18683
      vertex -3.40434 -7.00399 3.65093
    endloop
  endfacet
  facet normal 0.13971 0.220148 0.96541
    outer loop
      vertex -4.2559 -8.81365 4.18683
      vertex -4.59116 -7.19054 3.86522
      vertex -4.59116 -8.60089 4.18683
    endloop
  endfacet
  facet normal 0.13971 0.220148 0.96541
    outer loop
      vertex -3.40434 -7.00399 3.65093
      vertex -4.59116 -6.25082 3.65093
      vertex -4.59116 -7.19054 3.86522
    endloop
  endfacet
  facet normal 0.380383 0.599389 0.704302
    outer loop
      vertex -4.59116 -6.25082 3.65093
      vertex -2.78096 -5.67924 2.18683
      vertex -4.59116 -5.87479 3.33091
    endloop
  endfacet
  facet normal 0.380383 0.599388 0.704303
    outer loop
      vertex -2.78096 -5.67924 2.18683
      vertex -4.59116 -6.25082 3.65093
      vertex -3.40434 -7.00399 3.65093
    endloop
  endfacet
  facet normal 0.380383 0.599389 0.704302
    outer loop
      vertex -4.59116 -5.87479 3.33091
      vertex -4.16425 -4.80138 2.18683
      vertex -4.59116 -5.31742 2.85658
    endloop
  endfacet
  facet normal 0.380383 0.599389 0.704302
    outer loop
      vertex -4.16425 -4.80138 2.18683
      vertex -4.59116 -5.87479 3.33091
      vertex -2.78096 -5.67924 2.18683
    endloop
  endfacet
  facet normal 0.517841 0.815988 0.256913
    outer loop
      vertex -2.78096 -5.67924 2.18683
      vertex -2.55278 -5.19434 0.186828
      vertex -4.16425 -4.80138 2.18683
    endloop
  endfacet
  facet normal 0.517841 0.815988 0.256914
    outer loop
      vertex -2.55278 -5.19434 0.186828
      vertex -3.82265 -4.38846 0.186828
      vertex -4.16425 -4.80138 2.18683
    endloop
  endfacet
  facet normal 0.517841 0.815988 -0.256914
    outer loop
      vertex -2.55278 -5.19434 0.186828
      vertex -2.78096 -5.67924 -1.81317
      vertex -3.82265 -4.38846 0.186828
    endloop
  endfacet
  facet normal 0.517841 0.815988 -0.256914
    outer loop
      vertex -3.82265 -4.38846 0.186828
      vertex -2.78096 -5.67924 -1.81317
      vertex -4.16425 -4.80138 -1.81317
    endloop
  endfacet
  facet normal 0.380383 0.599389 -0.704303
    outer loop
      vertex -2.78096 -5.67924 -1.81317
      vertex -3.40434 -7.00399 -3.27727
      vertex -4.16425 -4.80138 -1.81317
    endloop
  endfacet
  facet normal 0.380384 0.599389 -0.704302
    outer loop
      vertex -4.59116 -6.25082 -3.27727
      vertex -4.16425 -4.80138 -1.81317
      vertex -3.40434 -7.00399 -3.27727
    endloop
  endfacet
  facet normal 0.380383 0.599389 -0.704302
    outer loop
      vertex -4.16425 -4.80138 -1.81317
      vertex -4.59116 -6.25082 -3.27727
      vertex -4.59116 -5.31742 -2.48292
    endloop
  endfacet
  facet normal 0.139711 0.220147 -0.96541
    outer loop
      vertex -4.59116 -7.66471 -3.59969
      vertex -3.40434 -7.00399 -3.27727
      vertex -4.2559 -8.81365 -3.81317
    endloop
  endfacet
  facet normal 0.13971 0.220148 -0.96541
    outer loop
      vertex -3.40434 -7.00399 -3.27727
      vertex -4.59116 -7.66471 -3.59969
      vertex -4.59116 -6.25082 -3.27727
    endloop
  endfacet
  facet normal 0.13971 0.220147 -0.96541
    outer loop
      vertex -4.59116 -7.66471 -3.59969
      vertex -4.2559 -8.81365 -3.81317
      vertex -4.59116 -8.60089 -3.81317
    endloop
  endfacet
  facet normal -0.13971 -0.220148 -0.96541
    outer loop
      vertex -4.59116 -8.60089 -3.81317
      vertex -4.2559 -8.81365 -3.81317
      vertex -4.59116 -9.52611 -3.60219
    endloop
  endfacet
  facet normal -0.298645 -0.919134 0.256914
    outer loop
      vertex -2.62145 -13.5174 0.186828
      vertex -4.59116 -12.655 0.982559
      vertex -4.59116 -12.8774 0.186828
    endloop
  endfacet
  facet normal -0.298645 -0.919134 0.256914
    outer loop
      vertex -4.59116 -12.655 0.982559
      vertex -2.62145 -13.5174 0.186828
      vertex -2.52103 -12.991 2.18683
    endloop
  endfacet
  facet normal -0.298645 -0.919134 0.256914
    outer loop
      vertex -2.52103 -12.991 2.18683
      vertex -4.59116 -12.3184 2.18683
      vertex -4.59116 -12.655 0.982559
    endloop
  endfacet
  facet normal -0.219371 -0.675156 0.704302
    outer loop
      vertex -4.59116 -12.3184 2.18683
      vertex -2.24668 -11.5528 3.65093
      vertex -4.59116 -11.8188 2.66574
    endloop
  endfacet
  facet normal -0.219371 -0.675155 0.704302
    outer loop
      vertex -2.24668 -11.5528 3.65093
      vertex -4.59116 -12.3184 2.18683
      vertex -2.52103 -12.991 2.18683
    endloop
  endfacet
  facet normal -0.219371 -0.675155 0.704303
    outer loop
      vertex -2.24668 -11.5528 3.65093
      vertex -4.59116 -10.7911 3.65093
      vertex -4.59116 -11.8188 2.66574
    endloop
  endfacet
  facet normal -0.0805723 -0.247976 0.96541
    outer loop
      vertex -4.59116 -10.4581 3.73644
      vertex -2.24668 -11.5528 3.65093
      vertex -1.87192 -9.58825 4.18683
    endloop
  endfacet
  facet normal -0.0805723 -0.247976 0.96541
    outer loop
      vertex -2.24668 -11.5528 3.65093
      vertex -4.59116 -10.4581 3.73644
      vertex -4.59116 -10.7911 3.65093
    endloop
  endfacet
  facet normal -0.0805723 -0.247976 0.96541
    outer loop
      vertex -4.59116 -9.52611 3.97584
      vertex -1.87192 -9.58825 4.18683
      vertex -4.2559 -8.81365 4.18683
    endloop
  endfacet
  facet normal -0.0805723 -0.247976 0.96541
    outer loop
      vertex -1.87192 -9.58825 4.18683
      vertex -4.59116 -9.52611 3.97584
      vertex -4.59116 -10.4581 3.73644
    endloop
  endfacet
  facet normal 0.0805723 0.247976 0.96541
    outer loop
      vertex -1.87192 -9.58825 4.18683
      vertex -1.49716 -7.62368 3.65093
      vertex -4.2559 -8.81365 4.18683
    endloop
  endfacet
  facet normal 0.0805722 0.247976 0.96541
    outer loop
      vertex -1.49716 -7.62368 3.65093
      vertex -3.40434 -7.00399 3.65093
      vertex -4.2559 -8.81365 4.18683
    endloop
  endfacet
  facet normal 0.219371 0.675155 0.704302
    outer loop
      vertex -1.49716 -7.62368 3.65093
      vertex -1.22281 -6.18551 2.18683
      vertex -3.40434 -7.00399 3.65093
    endloop
  endfacet
  facet normal 0.219371 0.675155 0.704303
    outer loop
      vertex -1.22281 -6.18551 2.18683
      vertex -2.78096 -5.67924 2.18683
      vertex -3.40434 -7.00399 3.65093
    endloop
  endfacet
  facet normal 0.298645 0.919134 0.256913
    outer loop
      vertex -1.22281 -6.18551 2.18683
      vertex -1.1224 -5.6591 0.186828
      vertex -2.78096 -5.67924 2.18683
    endloop
  endfacet
  facet normal 0.298645 0.919134 0.256914
    outer loop
      vertex -1.1224 -5.6591 0.186828
      vertex -2.55278 -5.19434 0.186828
      vertex -2.78096 -5.67924 2.18683
    endloop
  endfacet
  facet normal 0.298645 0.919134 -0.256913
    outer loop
      vertex -1.1224 -5.6591 0.186828
      vertex -1.22281 -6.18551 -1.81317
      vertex -2.55278 -5.19434 0.186828
    endloop
  endfacet
  facet normal 0.298645 0.919134 -0.256914
    outer loop
      vertex -2.55278 -5.19434 0.186828
      vertex -1.22281 -6.18551 -1.81317
      vertex -2.78096 -5.67924 -1.81317
    endloop
  endfacet
  facet normal 0.219371 0.675155 -0.704302
    outer loop
      vertex -1.22281 -6.18551 -1.81317
      vertex -1.49716 -7.62368 -3.27727
      vertex -2.78096 -5.67924 -1.81317
    endloop
  endfacet
  facet normal 0.219371 0.675155 -0.704302
    outer loop
      vertex -2.78096 -5.67924 -1.81317
      vertex -1.49716 -7.62368 -3.27727
      vertex -3.40434 -7.00399 -3.27727
    endloop
  endfacet
  facet normal 0.0805716 0.247975 -0.96541
    outer loop
      vertex -1.49716 -7.62368 -3.27727
      vertex -1.87192 -9.58825 -3.81317
      vertex -3.40434 -7.00399 -3.27727
    endloop
  endfacet
  facet normal 0.0805723 0.247976 -0.96541
    outer loop
      vertex -3.40434 -7.00399 -3.27727
      vertex -1.87192 -9.58825 -3.81317
      vertex -4.2559 -8.81365 -3.81317
    endloop
  endfacet
  facet normal -0.0805721 -0.247975 -0.96541
    outer loop
      vertex -1.87192 -9.58825 -3.81317
      vertex -2.24668 -11.5528 -3.27727
      vertex -4.2559 -8.81365 -3.81317
    endloop
  endfacet
  facet normal -0.0805726 -0.247976 -0.96541
    outer loop
      vertex -4.59116 -9.52611 -3.60219
      vertex -2.24668 -11.5528 -3.27727
      vertex -4.59116 -10.7911 -3.27727
    endloop
  endfacet
  facet normal -0.0805725 -0.247976 -0.96541
    outer loop
      vertex -2.24668 -11.5528 -3.27727
      vertex -4.59116 -9.52611 -3.60219
      vertex -4.2559 -8.81365 -3.81317
    endloop
  endfacet
  facet normal -0.219372 -0.675155 -0.704302
    outer loop
      vertex -4.59116 -11.0959 -2.98501
      vertex -2.24668 -11.5528 -3.27727
      vertex -2.52103 -12.991 -1.81317
    endloop
  endfacet
  facet normal -0.219372 -0.675155 -0.704302
    outer loop
      vertex -2.24668 -11.5528 -3.27727
      vertex -4.59116 -11.0959 -2.98501
      vertex -4.59116 -10.7911 -3.27727
    endloop
  endfacet
  facet normal -0.219371 -0.675155 -0.704303
    outer loop
      vertex -4.59116 -11.0959 -2.98501
      vertex -2.52103 -12.991 -1.81317
      vertex -4.59116 -12.3184 -1.81317
    endloop
  endfacet
  facet normal -0.298644 -0.919133 -0.256915
    outer loop
      vertex -2.52103 -12.991 -1.81317
      vertex -4.59116 -12.5233 -1.08011
      vertex -4.59116 -12.3184 -1.81317
    endloop
  endfacet
  facet normal -0.298644 -0.919134 -0.256914
    outer loop
      vertex -4.59116 -12.5233 -1.08011
      vertex -2.52103 -12.991 -1.81317
      vertex -2.62145 -13.5174 0.186828
    endloop
  endfacet
  facet normal -0.298645 -0.919134 -0.256913
    outer loop
      vertex -4.59116 -12.5233 -1.08011
      vertex -2.62145 -13.5174 0.186828
      vertex -4.59116 -12.8774 0.186828
    endloop
  endfacet
  facet normal -0.060683 -0.964527 0.256913
    outer loop
      vertex 0.0570993 -13.6859 0.186828
      vertex 0.0570993 -13.2746 1.73121
      vertex -2.62145 -13.5174 0.186828
    endloop
  endfacet
  facet normal -0.0606836 -0.964527 0.256913
    outer loop
      vertex -2.52103 -12.991 2.18683
      vertex 0.0570993 -13.2746 1.73121
      vertex 0.0570993 -13.1532 2.18683
    endloop
  endfacet
  facet normal -0.0606834 -0.964527 0.256914
    outer loop
      vertex 0.0570993 -13.2746 1.73121
      vertex -2.52103 -12.991 2.18683
      vertex -2.62145 -13.5174 0.186828
    endloop
  endfacet
  facet normal -0.0445755 -0.708499 0.704303
    outer loop
      vertex 0.0570993 -13.1532 2.18683
      vertex 0.0570993 -12.008 3.33889
      vertex -2.52103 -12.991 2.18683
    endloop
  endfacet
  facet normal -0.0445754 -0.7085 0.704302
    outer loop
      vertex -2.24668 -11.5528 3.65093
      vertex 0.0570993 -12.008 3.33889
      vertex 0.0570993 -11.6978 3.65093
    endloop
  endfacet
  facet normal -0.0445752 -0.708499 0.704302
    outer loop
      vertex 0.0570993 -12.008 3.33889
      vertex -2.24668 -11.5528 3.65093
      vertex -2.52103 -12.991 2.18683
    endloop
  endfacet
  facet normal -0.0163722 -0.260222 0.96541
    outer loop
      vertex 0.0570993 -11.6978 3.65093
      vertex 0.0570993 -10.1054 4.08013
      vertex -2.24668 -11.5528 3.65093
    endloop
  endfacet
  facet normal -0.0163718 -0.260222 0.96541
    outer loop
      vertex -1.87192 -9.58825 4.18683
      vertex 0.0570993 -10.1054 4.08013
      vertex 0.0570993 -9.70961 4.18683
    endloop
  endfacet
  facet normal -0.0163719 -0.260223 0.96541
    outer loop
      vertex 0.0570993 -10.1054 4.08013
      vertex -1.87192 -9.58825 4.18683
      vertex -2.24668 -11.5528 3.65093
    endloop
  endfacet
  facet normal 0.0163718 0.260222 0.96541
    outer loop
      vertex 0.0570993 -9.70961 4.18683
      vertex 0.0570993 -8.09557 3.75177
      vertex -1.87192 -9.58825 4.18683
    endloop
  endfacet
  facet normal 0.0163715 0.260223 0.96541
    outer loop
      vertex -1.49716 -7.62368 3.65093
      vertex 0.0570993 -8.09557 3.75177
      vertex 0.0570993 -7.72146 3.65093
    endloop
  endfacet
  facet normal 0.0163714 0.260223 0.96541
    outer loop
      vertex 0.0570993 -8.09557 3.75177
      vertex -1.49716 -7.62368 3.65093
      vertex -1.87192 -9.58825 4.18683
    endloop
  endfacet
  facet normal 0.0445749 0.708499 0.704302
    outer loop
      vertex 0.0570993 -7.72146 3.65093
      vertex 0.0570993 -6.53677 2.45917
      vertex -1.49716 -7.62368 3.65093
    endloop
  endfacet
  facet normal 0.0445751 0.708499 0.704302
    outer loop
      vertex -1.22281 -6.18551 2.18683
      vertex 0.0570993 -6.53677 2.45917
      vertex 0.0570993 -6.26603 2.18683
    endloop
  endfacet
  facet normal 0.0445751 0.708499 0.704302
    outer loop
      vertex 0.0570993 -6.53677 2.45917
      vertex -1.22281 -6.18551 2.18683
      vertex -1.49716 -7.62368 3.65093
    endloop
  endfacet
  facet normal 0.0606831 0.964527 0.256913
    outer loop
      vertex 0.0570993 -6.26603 2.18683
      vertex 0.0570993 -5.84027 0.588385
      vertex -1.22281 -6.18551 2.18683
    endloop
  endfacet
  facet normal 0.0606835 0.964527 0.256913
    outer loop
      vertex -1.1224 -5.6591 0.186828
      vertex 0.0570993 -5.84027 0.588385
      vertex 0.0570993 -5.73331 0.186828
    endloop
  endfacet
  facet normal 0.0606834 0.964527 0.256913
    outer loop
      vertex 0.0570993 -5.84027 0.588385
      vertex -1.1224 -5.6591 0.186828
      vertex -1.22281 -6.18551 2.18683
    endloop
  endfacet
  facet normal 0.0606835 0.964527 -0.256913
    outer loop
      vertex 0.0570993 -5.73331 0.186828
      vertex 0.0570993 -6.14274 -1.35029
      vertex -1.1224 -5.6591 0.186828
    endloop
  endfacet
  facet normal 0.0606831 0.964527 -0.256914
    outer loop
      vertex -1.22281 -6.18551 -1.81317
      vertex 0.0570993 -6.14274 -1.35029
      vertex 0.0570993 -6.26603 -1.81317
    endloop
  endfacet
  facet normal 0.060683 0.964527 -0.256914
    outer loop
      vertex 0.0570993 -6.14274 -1.35029
      vertex -1.22281 -6.18551 -1.81317
      vertex -1.1224 -5.6591 0.186828
    endloop
  endfacet
  facet normal 0.0445751 0.708499 -0.704302
    outer loop
      vertex 0.0570993 -6.26603 -1.81317
      vertex 0.0570993 -7.34466 -2.89823
      vertex -1.22281 -6.18551 -1.81317
    endloop
  endfacet
  facet normal 0.0445752 0.7085 -0.704302
    outer loop
      vertex -1.49716 -7.62368 -3.27727
      vertex 0.0570993 -7.34466 -2.89823
      vertex 0.0570993 -7.72146 -3.27727
    endloop
  endfacet
  facet normal 0.0445754 0.708499 -0.704302
    outer loop
      vertex 0.0570993 -7.34466 -2.89823
      vertex -1.49716 -7.62368 -3.27727
      vertex -1.22281 -6.18551 -1.81317
    endloop
  endfacet
  facet normal 0.0163719 0.260222 -0.96541
    outer loop
      vertex 0.0570993 -7.72146 -3.27727
      vertex 0.0570993 -9.17429 -3.66888
      vertex -1.49716 -7.62368 -3.27727
    endloop
  endfacet
  facet normal 0.0163718 0.260222 -0.96541
    outer loop
      vertex -1.87192 -9.58825 -3.81317
      vertex 0.0570993 -9.17429 -3.66888
      vertex 0.0570993 -9.70961 -3.81317
    endloop
  endfacet
  facet normal 0.0163717 0.260222 -0.96541
    outer loop
      vertex 0.0570993 -9.17429 -3.66888
      vertex -1.87192 -9.58825 -3.81317
      vertex -1.49716 -7.62368 -3.27727
    endloop
  endfacet
  facet normal -0.0163718 -0.260222 -0.96541
    outer loop
      vertex 0.0570993 -9.70961 -3.81317
      vertex 0.0570993 -11.1694 -3.4197
      vertex -1.87192 -9.58825 -3.81317
    endloop
  endfacet
  facet normal -0.0163719 -0.260222 -0.96541
    outer loop
      vertex -2.24668 -11.5528 -3.27727
      vertex 0.0570993 -11.1694 -3.4197
      vertex 0.0570993 -11.6978 -3.27727
    endloop
  endfacet
  facet normal -0.0163719 -0.260222 -0.96541
    outer loop
      vertex 0.0570993 -11.1694 -3.4197
      vertex -2.24668 -11.5528 -3.27727
      vertex -1.87192 -9.58825 -3.81317
    endloop
  endfacet
  facet normal -0.0445752 -0.708499 -0.704302
    outer loop
      vertex 0.0570993 -11.6978 -3.27727
      vertex 0.0570993 -12.7815 -2.1871
      vertex -2.24668 -11.5528 -3.27727
    endloop
  endfacet
  facet normal -0.0445755 -0.708499 -0.704302
    outer loop
      vertex -2.52103 -12.991 -1.81317
      vertex 0.0570993 -12.7815 -2.1871
      vertex 0.0570993 -13.1532 -1.81317
    endloop
  endfacet
  facet normal -0.0445755 -0.708499 -0.704302
    outer loop
      vertex 0.0570993 -12.7815 -2.1871
      vertex -2.52103 -12.991 -1.81317
      vertex -2.24668 -11.5528 -3.27727
    endloop
  endfacet
  facet normal -0.0606836 -0.964527 -0.256913
    outer loop
      vertex 0.0570993 -13.1532 -1.81317
      vertex 0.0570993 -13.5569 -0.297513
      vertex -2.52103 -12.991 -1.81317
    endloop
  endfacet
  facet normal -0.060683 -0.964527 -0.256914
    outer loop
      vertex -2.62145 -13.5174 0.186828
      vertex 0.0570993 -13.5569 -0.297513
      vertex 0.0570993 -13.6859 0.186828
    endloop
  endfacet
  facet normal -0.060683 -0.964527 -0.256914
    outer loop
      vertex 0.0570993 -13.5569 -0.297513
      vertex -2.62145 -13.5174 0.186828
      vertex -2.52103 -12.991 -1.81317
    endloop
  endfacet
  facet normal -1 0 0
    outer loop
      vertex -4.59116 13.1242 -0.608903
      vertex -4.59116 12.9925 1.45377
      vertex -4.59116 13.3466 0.186828
    endloop
  endfacet
  facet normal -1 0 0
    outer loop
      vertex -4.59116 12.288 -2.29208
      vertex -4.59116 13.1242 -0.608903
      vertex -4.59116 12.7876 -1.81317
    endloop
  endfacet
  facet normal -1 -0 0
    outer loop
      vertex -4.59116 13.1242 -0.608903
      vertex -4.59116 12.288 -2.29208
      vertex -4.59116 12.9925 1.45377
    endloop
  endfacet
  facet normal -1 0 0
    outer loop
      vertex -4.59116 9.99535 3.97584
      vertex -4.59116 12.9925 1.45377
      vertex -4.59116 12.288 -2.29208
    endloop
  endfacet
  facet normal -1 0 0
    outer loop
      vertex -4.59116 12.9925 1.45377
      vertex -4.59116 11.5652 3.35867
      vertex -4.59116 12.7876 2.18683
    endloop
  endfacet
  facet normal -1 0 0
    outer loop
      vertex -4.59116 10.9274 -3.36279
      vertex -4.59116 12.288 -2.29208
      vertex -4.59116 11.2603 -3.27727
    endloop
  endfacet
  facet normal -1 0 0
    outer loop
      vertex -4.59116 9.99535 -3.60219
      vertex -4.59116 12.288 -2.29208
      vertex -4.59116 10.9274 -3.36279
    endloop
  endfacet
  facet normal -1 0 0
    outer loop
      vertex -4.59116 9.99535 3.97584
      vertex -4.59116 12.288 -2.29208
      vertex -4.59116 9.99535 -3.60219
    endloop
  endfacet
  facet normal -1 0 0
    outer loop
      vertex -4.59116 12.9925 1.45377
      vertex -4.59116 9.99535 3.97584
      vertex -4.59116 11.5652 3.35867
    endloop
  endfacet
  facet normal -1 0 0
    outer loop
      vertex -4.59116 11.5652 3.35867
      vertex -4.59116 9.99535 3.97584
      vertex -4.59116 11.2603 3.65093
    endloop
  endfacet
  facet normal -1 0 0
    outer loop
      vertex -4.59116 7.65978 -3.49156
      vertex -4.59116 9.99535 -3.60219
      vertex -4.59116 9.30245 -3.76019
    endloop
  endfacet
  facet normal -1 0 0
    outer loop
      vertex -4.59116 7.65978 -3.49156
      vertex -4.59116 9.30245 -3.76019
      vertex -4.59116 9.07012 -3.81317
    endloop
  endfacet
  facet normal -1 0 -0
    outer loop
      vertex -4.59116 8.13395 3.97335
      vertex -4.59116 9.99535 -3.60219
      vertex -4.59116 7.65978 -3.49156
    endloop
  endfacet
  facet normal -1 -0 0
    outer loop
      vertex -4.59116 9.99535 3.97584
      vertex -4.59116 8.13395 3.97335
      vertex -4.59116 9.07012 4.18683
    endloop
  endfacet
  facet normal -1 0 0
    outer loop
      vertex -4.59116 9.99535 -3.60219
      vertex -4.59116 8.13395 3.97335
      vertex -4.59116 9.99535 3.97584
    endloop
  endfacet
  facet normal -1 0 0
    outer loop
      vertex -4.59116 6.34402 -2.95726
      vertex -4.59116 7.65978 -3.49156
      vertex -4.59116 6.72006 -3.27727
    endloop
  endfacet
  facet normal -1 0 0
    outer loop
      vertex -4.59116 5.78666 -2.48292
      vertex -4.59116 7.65978 -3.49156
      vertex -4.59116 6.34402 -2.95726
    endloop
  endfacet
  facet normal -1 0 0
    outer loop
      vertex -4.59116 7.65978 -3.49156
      vertex -4.59116 5.78666 2.85658
      vertex -4.59116 8.13395 3.97335
    endloop
  endfacet
  facet normal -1 0 0
    outer loop
      vertex -4.59116 7.65978 -3.49156
      vertex -4.59116 5.78666 -2.48292
      vertex -4.59116 5.78666 2.85658
    endloop
  endfacet
  facet normal -1 0 0
    outer loop
      vertex -4.59116 8.13395 3.97335
      vertex -4.59116 5.78666 2.85658
      vertex -4.59116 6.72006 3.65093
    endloop
  endfacet
  facet normal -1 0 0
    outer loop
      vertex -4.59116 4.44727 -0.863686
      vertex -4.59116 5.78666 -2.48292
      vertex -4.59116 5.20883 -2.08422
    endloop
  endfacet
  facet normal -1 0 0
    outer loop
      vertex -4.59116 4.44727 -0.863686
      vertex -4.59116 5.20883 -2.08422
      vertex -4.59116 4.816 -1.81317
    endloop
  endfacet
  facet normal -1 0 0
    outer loop
      vertex -4.59116 5.78666 -2.48292
      vertex -4.59116 4.44727 -0.863686
      vertex -4.59116 5.78666 2.85658
    endloop
  endfacet
  facet normal -1 0 0
    outer loop
      vertex -4.59116 4.33403 0.945733
      vertex -4.59116 5.78666 2.85658
      vertex -4.59116 4.44727 -0.863686
    endloop
  endfacet
  facet normal -1 0 0
    outer loop
      vertex -4.59116 5.78666 2.85658
      vertex -4.59116 4.33403 0.945733
      vertex -4.59116 4.816 2.18683
    endloop
  endfacet
  facet normal -1 0 -0
    outer loop
      vertex -4.59116 4.33403 0.945733
      vertex -4.59116 4.44727 -0.863686
      vertex -4.59116 4.03932 0.186828
    endloop
  endfacet
  facet normal -1 0 0
    outer loop
      vertex -4.59116 -3.86479 -0.572077
      vertex -4.59116 -3.97803 1.23734
      vertex -4.59116 -3.57008 0.186828
    endloop
  endfacet
  facet normal -1 0 0
    outer loop
      vertex -4.59116 -5.31742 -2.48292
      vertex -4.59116 -3.86479 -0.572077
      vertex -4.59116 -4.34676 -1.81317
    endloop
  endfacet
  facet normal -1 -0 0
    outer loop
      vertex -4.59116 -3.86479 -0.572077
      vertex -4.59116 -5.31742 -2.48292
      vertex -4.59116 -3.97803 1.23734
    endloop
  endfacet
  facet normal -1 0 0
    outer loop
      vertex -4.59116 -3.97803 1.23734
      vertex -4.59116 -4.73959 2.45788
      vertex -4.59116 -4.34676 2.18683
    endloop
  endfacet
  facet normal -1 0 0
    outer loop
      vertex -4.59116 -5.31742 2.85658
      vertex -4.59116 -3.97803 1.23734
      vertex -4.59116 -5.31742 -2.48292
    endloop
  endfacet
  facet normal -1 0 0
    outer loop
      vertex -4.59116 -3.97803 1.23734
      vertex -4.59116 -5.31742 2.85658
      vertex -4.59116 -4.73959 2.45788
    endloop
  endfacet
  facet normal -1 0 0
    outer loop
      vertex -4.59116 -7.19054 3.86522
      vertex -4.59116 -5.31742 2.85658
      vertex -4.59116 -5.31742 -2.48292
    endloop
  endfacet
  facet normal -1 0 0
    outer loop
      vertex -4.59116 -7.66471 -3.59969
      vertex -4.59116 -5.31742 -2.48292
      vertex -4.59116 -6.25082 -3.27727
    endloop
  endfacet
  facet normal -1 0 -0
    outer loop
      vertex -4.59116 -7.19054 3.86522
      vertex -4.59116 -5.31742 -2.48292
      vertex -4.59116 -7.66471 -3.59969
    endloop
  endfacet
  facet normal -1 0 0
    outer loop
      vertex -4.59116 -5.87479 3.33091
      vertex -4.59116 -7.19054 3.86522
      vertex -4.59116 -6.25082 3.65093
    endloop
  endfacet
  facet normal -1 0 0
    outer loop
      vertex -4.59116 -5.31742 2.85658
      vertex -4.59116 -7.19054 3.86522
      vertex -4.59116 -5.87479 3.33091
    endloop
  endfacet
  facet normal -1 0 0
    outer loop
      vertex -4.59116 -9.52611 -3.60219
      vertex -4.59116 -7.66471 -3.59969
      vertex -4.59116 -8.60089 -3.81317
    endloop
  endfacet
  facet normal -1 0 0
    outer loop
      vertex -4.59116 -9.52611 3.97584
      vertex -4.59116 -7.66471 -3.59969
      vertex -4.59116 -9.52611 -3.60219
    endloop
  endfacet
  facet normal -1 0 0
    outer loop
      vertex -4.59116 -7.19054 3.86522
      vertex -4.59116 -8.83321 4.13385
      vertex -4.59116 -8.60089 4.18683
    endloop
  endfacet
  facet normal -1 0 0
    outer loop
      vertex -4.59116 -7.66471 -3.59969
      vertex -4.59116 -9.52611 3.97584
      vertex -4.59116 -7.19054 3.86522
    endloop
  endfacet
  facet normal -1 0 0
    outer loop
      vertex -4.59116 -7.19054 3.86522
      vertex -4.59116 -9.52611 3.97584
      vertex -4.59116 -8.83321 4.13385
    endloop
  endfacet
  facet normal -1 0 0
    outer loop
      vertex -4.59116 -11.8188 2.66574
      vertex -4.59116 -9.52611 3.97584
      vertex -4.59116 -9.52611 -3.60219
    endloop
  endfacet
  facet normal -1 0 0
    outer loop
      vertex -4.59116 -11.0959 -2.98501
      vertex -4.59116 -9.52611 -3.60219
      vertex -4.59116 -10.7911 -3.27727
    endloop
  endfacet
  facet normal -1 0 0
    outer loop
      vertex -4.59116 -12.5233 -1.08011
      vertex -4.59116 -9.52611 -3.60219
      vertex -4.59116 -11.0959 -2.98501
    endloop
  endfacet
  facet normal -1 0 0
    outer loop
      vertex -4.59116 -9.52611 3.97584
      vertex -4.59116 -11.8188 2.66574
      vertex -4.59116 -10.4581 3.73644
    endloop
  endfacet
  facet normal -1 0 0
    outer loop
      vertex -4.59116 -10.4581 3.73644
      vertex -4.59116 -11.8188 2.66574
      vertex -4.59116 -10.7911 3.65093
    endloop
  endfacet
  facet normal -1 0 0
    outer loop
      vertex -4.59116 -12.5233 -1.08011
      vertex -4.59116 -11.0959 -2.98501
      vertex -4.59116 -12.3184 -1.81317
    endloop
  endfacet
  facet normal -1 0 0
    outer loop
      vertex -4.59116 -9.52611 -3.60219
      vertex -4.59116 -12.5233 -1.08011
      vertex -4.59116 -11.8188 2.66574
    endloop
  endfacet
  facet normal -1 0 0
    outer loop
      vertex -4.59116 -12.655 0.982559
      vertex -4.59116 -11.8188 2.66574
      vertex -4.59116 -12.5233 -1.08011
    endloop
  endfacet
  facet normal -1 0 0
    outer loop
      vertex -4.59116 -11.8188 2.66574
      vertex -4.59116 -12.655 0.982559
      vertex -4.59116 -12.3184 2.18683
    endloop
  endfacet
  facet normal -1 0 -0
    outer loop
      vertex -4.59116 -12.655 0.982559
      vertex -4.59116 -12.5233 -1.08011
      vertex -4.59116 -12.8774 0.186828
    endloop
  endfacet
  facet normal 1 0 0
    outer loop
      vertex 0.0570993 14.0261 0.671169
      vertex 0.0570993 13.7438 -1.35755
      vertex 0.0570993 14.1552 0.186828
    endloop
  endfacet
  facet normal 1 0 0
    outer loop
      vertex 0.0570993 13.2507 2.56076
      vertex 0.0570993 14.0261 0.671169
      vertex 0.0570993 13.6224 2.18683
    endloop
  endfacet
  facet normal 1 0 0
    outer loop
      vertex 0.0570993 14.0261 0.671169
      vertex 0.0570993 13.2507 2.56076
      vertex 0.0570993 13.7438 -1.35755
    endloop
  endfacet
  facet normal 1 0 0
    outer loop
      vertex 0.0570993 12.4772 -2.96524
      vertex 0.0570993 13.7438 -1.35755
      vertex 0.0570993 13.2507 2.56076
    endloop
  endfacet
  facet normal 1 0 0
    outer loop
      vertex 0.0570993 13.7438 -1.35755
      vertex 0.0570993 12.4772 -2.96524
      vertex 0.0570993 13.6224 -1.81317
    endloop
  endfacet
  facet normal 1 0 0
    outer loop
      vertex 0.0570993 11.6386 3.79336
      vertex 0.0570993 13.2507 2.56076
      vertex 0.0570993 12.167 3.65093
    endloop
  endfacet
  facet normal 1 0 0
    outer loop
      vertex 0.0570993 13.2507 2.56076
      vertex 0.0570993 11.6386 3.79336
      vertex 0.0570993 12.4772 -2.96524
    endloop
  endfacet
  facet normal 1 0 0
    outer loop
      vertex 0.0570993 10.5747 -3.70647
      vertex 0.0570993 12.4772 -2.96524
      vertex 0.0570993 11.6386 3.79336
    endloop
  endfacet
  facet normal 1 0 0
    outer loop
      vertex 0.0570993 12.4772 -2.96524
      vertex 0.0570993 10.5747 -3.70647
      vertex 0.0570993 12.167 -3.27727
    endloop
  endfacet
  facet normal 1 -0 0
    outer loop
      vertex 0.0570993 9.64353 4.04253
      vertex 0.0570993 11.6386 3.79336
      vertex 0.0570993 10.1789 4.18683
    endloop
  endfacet
  facet normal 1 0 0
    outer loop
      vertex 0.0570993 11.6386 3.79336
      vertex 0.0570993 9.64353 4.04253
      vertex 0.0570993 10.5747 -3.70647
    endloop
  endfacet
  facet normal 1 -0 0
    outer loop
      vertex 0.0570993 8.56481 -3.37811
      vertex 0.0570993 10.5747 -3.70647
      vertex 0.0570993 9.64353 4.04253
    endloop
  endfacet
  facet normal 1 0 0
    outer loop
      vertex 0.0570993 10.5747 -3.70647
      vertex 0.0570993 8.56481 -3.37811
      vertex 0.0570993 10.1789 -3.81317
    endloop
  endfacet
  facet normal 1 0 0
    outer loop
      vertex 0.0570993 7.8139 3.27188
      vertex 0.0570993 9.64353 4.04253
      vertex 0.0570993 8.1907 3.65093
    endloop
  endfacet
  facet normal 1 0 0
    outer loop
      vertex 0.0570993 9.64353 4.04253
      vertex 0.0570993 7.8139 3.27188
      vertex 0.0570993 8.56481 -3.37811
    endloop
  endfacet
  facet normal 1 -0 0
    outer loop
      vertex 0.0570993 7.006 -2.08552
      vertex 0.0570993 8.56481 -3.37811
      vertex 0.0570993 7.8139 3.27188
    endloop
  endfacet
  facet normal 1 0 0
    outer loop
      vertex 0.0570993 8.56481 -3.37811
      vertex 0.0570993 7.006 -2.08552
      vertex 0.0570993 8.1907 -3.27727
    endloop
  endfacet
  facet normal 1 0 0
    outer loop
      vertex 0.0570993 6.61198 1.72395
      vertex 0.0570993 7.8139 3.27188
      vertex 0.0570993 6.73527 2.18683
    endloop
  endfacet
  facet normal 1 0 0
    outer loop
      vertex 0.0570993 7.8139 3.27188
      vertex 0.0570993 6.61198 1.72395
      vertex 0.0570993 7.006 -2.08552
    endloop
  endfacet
  facet normal 1 -0 0
    outer loop
      vertex 0.0570993 6.30951 -0.214729
      vertex 0.0570993 7.006 -2.08552
      vertex 0.0570993 6.61198 1.72395
    endloop
  endfacet
  facet normal 1 0 0
    outer loop
      vertex 0.0570993 7.006 -2.08552
      vertex 0.0570993 6.30951 -0.214729
      vertex 0.0570993 6.73527 -1.81317
    endloop
  endfacet
  facet normal 1 0 -0
    outer loop
      vertex 0.0570993 6.30951 -0.214729
      vertex 0.0570993 6.61198 1.72395
      vertex 0.0570993 6.20255 0.186828
    endloop
  endfacet
  facet normal 1 0 0
    outer loop
      vertex 0.0570993 -5.84027 0.588385
      vertex 0.0570993 -6.14274 -1.35029
      vertex 0.0570993 -5.73331 0.186828
    endloop
  endfacet
  facet normal 1 0 0
    outer loop
      vertex 0.0570993 -6.53677 2.45917
      vertex 0.0570993 -5.84027 0.588385
      vertex 0.0570993 -6.26603 2.18683
    endloop
  endfacet
  facet normal 1 0 0
    outer loop
      vertex 0.0570993 -5.84027 0.588385
      vertex 0.0570993 -6.53677 2.45917
      vertex 0.0570993 -6.14274 -1.35029
    endloop
  endfacet
  facet normal 1 0 0
    outer loop
      vertex 0.0570993 -7.34466 -2.89823
      vertex 0.0570993 -6.14274 -1.35029
      vertex 0.0570993 -6.53677 2.45917
    endloop
  endfacet
  facet normal 1 0 0
    outer loop
      vertex 0.0570993 -6.14274 -1.35029
      vertex 0.0570993 -7.34466 -2.89823
      vertex 0.0570993 -6.26603 -1.81317
    endloop
  endfacet
  facet normal 1 0 0
    outer loop
      vertex 0.0570993 -8.09557 3.75177
      vertex 0.0570993 -6.53677 2.45917
      vertex 0.0570993 -7.72146 3.65093
    endloop
  endfacet
  facet normal 1 0 0
    outer loop
      vertex 0.0570993 -6.53677 2.45917
      vertex 0.0570993 -8.09557 3.75177
      vertex 0.0570993 -7.34466 -2.89823
    endloop
  endfacet
  facet normal 1 0 0
    outer loop
      vertex 0.0570993 -9.17429 -3.66888
      vertex 0.0570993 -7.34466 -2.89823
      vertex 0.0570993 -8.09557 3.75177
    endloop
  endfacet
  facet normal 1 0 0
    outer loop
      vertex 0.0570993 -7.34466 -2.89823
      vertex 0.0570993 -9.17429 -3.66888
      vertex 0.0570993 -7.72146 -3.27727
    endloop
  endfacet
  facet normal 1 -0 0
    outer loop
      vertex 0.0570993 -10.1054 4.08013
      vertex 0.0570993 -8.09557 3.75177
      vertex 0.0570993 -9.70961 4.18683
    endloop
  endfacet
  facet normal 1 0 0
    outer loop
      vertex 0.0570993 -8.09557 3.75177
      vertex 0.0570993 -10.1054 4.08013
      vertex 0.0570993 -9.17429 -3.66888
    endloop
  endfacet
  facet normal 1 -0 0
    outer loop
      vertex 0.0570993 -11.1694 -3.4197
      vertex 0.0570993 -9.17429 -3.66888
      vertex 0.0570993 -10.1054 4.08013
    endloop
  endfacet
  facet normal 1 0 0
    outer loop
      vertex 0.0570993 -9.17429 -3.66888
      vertex 0.0570993 -11.1694 -3.4197
      vertex 0.0570993 -9.70961 -3.81317
    endloop
  endfacet
  facet normal 1 0 0
    outer loop
      vertex 0.0570993 -12.008 3.33889
      vertex 0.0570993 -10.1054 4.08013
      vertex 0.0570993 -11.6978 3.65093
    endloop
  endfacet
  facet normal 1 0 0
    outer loop
      vertex 0.0570993 -10.1054 4.08013
      vertex 0.0570993 -12.008 3.33889
      vertex 0.0570993 -11.1694 -3.4197
    endloop
  endfacet
  facet normal 1 -0 0
    outer loop
      vertex 0.0570993 -12.7815 -2.1871
      vertex 0.0570993 -11.1694 -3.4197
      vertex 0.0570993 -12.008 3.33889
    endloop
  endfacet
  facet normal 1 0 0
    outer loop
      vertex 0.0570993 -11.1694 -3.4197
      vertex 0.0570993 -12.7815 -2.1871
      vertex 0.0570993 -11.6978 -3.27727
    endloop
  endfacet
  facet normal 1 0 0
    outer loop
      vertex 0.0570993 -13.2746 1.73121
      vertex 0.0570993 -12.008 3.33889
      vertex 0.0570993 -13.1532 2.18683
    endloop
  endfacet
  facet normal 1 0 0
    outer loop
      vertex 0.0570993 -12.008 3.33889
      vertex 0.0570993 -13.2746 1.73121
      vertex 0.0570993 -12.7815 -2.1871
    endloop
  endfacet
  facet normal 1 -0 0
    outer loop
      vertex 0.0570993 -13.5569 -0.297513
      vertex 0.0570993 -12.7815 -2.1871
      vertex 0.0570993 -13.2746 1.73121
    endloop
  endfacet
  facet normal 1 0 0
    outer loop
      vertex 0.0570993 -12.7815 -2.1871
      vertex 0.0570993 -13.5569 -0.297513
      vertex 0.0570993 -13.1532 -1.81317
    endloop
  endfacet
  facet normal 1 0 -0
    outer loop
      vertex 0.0570993 -13.5569 -0.297513
      vertex 0.0570993 -13.2746 1.73121
      vertex 0.0570993 -13.6859 0.186828
    endloop
  endfacet
endsolid OpenSCAD_Model
