solid model
facet normal 1.0 -0.0 -0.0
outer loop
vertex -4.607295360893316 12.94612759228567 -5.376374157188558
vertex -4.607295360893316 -17.053872407714334 9.623625842811439
vertex -4.607295360893316 -17.053872407714334 -5.376374157188558
endloop
endfacet
facet normal 1.0 -0.0 -0.0
outer loop
vertex -4.607295360893316 -17.053872407714334 9.623625842811439
vertex -4.607295360893316 12.94612759228567 -5.376374157188558
vertex -4.607295360893316 12.94612759228567 9.623625842811439
endloop
endfacet
facet normal 1.0 -0.0 -0.0
outer loop
vertex -4.607295360893316 12.94612759228567 9.623625842811439
vertex -4.607295360893316 12.94612759228567 -5.376374157188558
vertex -4.607295360893316 12.94612759228567 9.313171259025331
endloop
endfacet
facet normal -0.0 -0.0 -0.9999999999999999
outer loop
vertex 11.392704639106684 12.94612759228567 9.623625842811439
vertex -4.607295360893316 -17.053872407714334 9.623625842811439
vertex -4.607295360893316 12.94612759228567 9.623625842811439
endloop
endfacet
facet normal -0.0 -0.0 -0.9999999999999999
outer loop
vertex -4.607295360893316 -17.053872407714334 9.623625842811439
vertex 11.392704639106684 12.94612759228567 9.623625842811439
vertex 11.392704639106684 -17.053872407714334 9.623625842811439
endloop
endfacet
facet normal -1.0 0.0 0.0
outer loop
vertex -6.48154951753183 12.946127592285666 10.999999999999995
vertex -6.48154951753183 -17.053872407714326 -7.0
vertex -6.48154951753183 -17.053872407714326 10.999999999999995
endloop
endfacet
facet normal -1.0 0.0 0.0
outer loop
vertex -6.48154951753183 -17.053872407714326 -7.0
vertex -6.48154951753183 12.946127592285666 10.999999999999995
vertex -6.48154951753183 12.946127592285666 -7.0
endloop
endfacet
facet normal 0.0 -1.0 0.0
outer loop
vertex 13.518450482468166 -17.053872407714326 -7.0
vertex 11.392704639106684 -17.053872407714334 -5.376374157188558
vertex -6.48154951753183 -17.053872407714326 -7.0
endloop
endfacet
facet normal 0.0 -1.0 0.0
outer loop
vertex 11.392704639106684 -17.053872407714334 -5.376374157188558
vertex 13.518450482468166 -17.053872407714326 -7.0
vertex 13.518450482468166 -17.053872407714326 10.999999999999995
endloop
endfacet
facet normal 0.0 -1.0 0.0
outer loop
vertex 11.392704639106684 -17.053872407714334 -5.376374157188558
vertex 13.518450482468166 -17.053872407714326 10.999999999999995
vertex 11.392704639106684 -17.053872407714334 9.623625842811439
endloop
endfacet
facet normal 0.0 -1.0 0.0
outer loop
vertex 11.392704639106684 -17.053872407714334 9.623625842811439
vertex 13.518450482468166 -17.053872407714326 10.999999999999995
vertex -4.607295360893316 -17.053872407714334 9.623625842811439
endloop
endfacet
facet normal 0.0 -1.0 0.0
outer loop
vertex -6.48154951753183 -17.053872407714326 -7.0
vertex -4.607295360893316 -17.053872407714334 -5.376374157188558
vertex -6.48154951753183 -17.053872407714326 10.999999999999995
endloop
endfacet
facet normal 0.0 -1.0 0.0
outer loop
vertex -4.607295360893316 -17.053872407714334 -5.376374157188558
vertex -6.48154951753183 -17.053872407714326 -7.0
vertex 11.392704639106684 -17.053872407714334 -5.376374157188558
endloop
endfacet
facet normal 0.0 -1.0 0.0
outer loop
vertex -6.48154951753183 -17.053872407714326 10.999999999999995
vertex -4.607295360893316 -17.053872407714334 -5.376374157188558
vertex -4.607295360893316 -17.053872407714334 9.623625842811439
endloop
endfacet
facet normal 0.0 -1.0 0.0
outer loop
vertex -6.48154951753183 -17.053872407714326 10.999999999999995
vertex -4.607295360893316 -17.053872407714334 9.623625842811439
vertex 13.518450482468166 -17.053872407714326 10.999999999999995
endloop
endfacet
facet normal 0.0 0.0 -1.0
outer loop
vertex 13.518450482468166 -17.053872407714326 -7.0
vertex -6.48154951753183 -17.053872407714326 -7.0
vertex 13.518450482468166 12.946127592285666 -7.0
endloop
endfacet
facet normal 3.601181433913665e-17 1.0 1.1811403238176085e-17
outer loop
vertex -6.48154951753183 12.946127592285666 10.999999999999995
vertex -4.607295360893316 12.94612759228567 9.623625842811439
vertex -4.607295360893316 12.94612759228567 9.313171259025331
endloop
endfacet
facet normal 3.601181433913665e-17 1.0 1.1811403238176085e-17
outer loop
vertex -4.607295360893316 12.94612759228567 9.623625842811439
vertex -6.48154951753183 12.946127592285666 10.999999999999995
vertex 11.392704639106684 12.94612759228567 9.623625842811439
endloop
endfacet
facet normal 3.601181433913665e-17 1.0 1.1811403238176085e-17
outer loop
vertex 11.392704639106684 12.94612759228567 -5.086828740974664
vertex 13.518450482468166 12.946127592285666 10.999999999999995
vertex 13.518450482468166 12.946127592285666 -7.0
endloop
endfacet
facet normal 3.601181433913665e-17 1.0 1.1811403238176085e-17
outer loop
vertex 13.518450482468166 12.946127592285666 10.999999999999995
vertex 11.392704639106684 12.94612759228567 -5.086828740974664
vertex 11.392704639106684 12.94612759228567 9.623625842811439
endloop
endfacet
facet normal 3.601181433913665e-17 1.0 1.1811403238176085e-17
outer loop
vertex 13.518450482468166 12.946127592285666 10.999999999999995
vertex 11.392704639106684 12.94612759228567 9.623625842811439
vertex -6.48154951753183 12.946127592285666 10.999999999999995
endloop
endfacet
facet normal -0.0 -0.0 0.9999999999999999
outer loop
vertex 11.392704639106684 -17.053872407714334 -5.376374157188558
vertex -4.607295360893316 12.94612759228567 -5.376374157188558
vertex -4.607295360893316 -17.053872407714334 -5.376374157188558
endloop
endfacet
facet normal -0.0 -0.0 0.9999999999999999
outer loop
vertex -4.607295360893316 12.94612759228567 -5.376374157188558
vertex 11.392704639106684 -17.053872407714334 -5.376374157188558
vertex 11.392704639106684 12.94612759228567 -5.376374157188558
endloop
endfacet
facet normal 0.0 0.0 -1.0
outer loop
vertex 13.518450482468166 12.946127592285666 -7.0
vertex -6.48154951753183 -17.053872407714326 -7.0
vertex -6.48154951753183 12.946127592285666 -7.0
endloop
endfacet
facet normal 1.0 -0.0 -0.0
outer loop
vertex 13.518450482468166 12.946127592285666 -7.0
vertex 13.518450482468166 -17.053872407714326 10.999999999999995
vertex 13.518450482468166 -17.053872407714326 -7.0
endloop
endfacet
facet normal -0.0 -0.0 1.0
outer loop
vertex 13.518450482468166 -17.053872407714326 10.999999999999995
vertex -6.48154951753183 12.946127592285666 10.999999999999995
vertex -6.48154951753183 -17.053872407714326 10.999999999999995
endloop
endfacet
facet normal -0.0 -0.0 1.0
outer loop
vertex -6.48154951753183 12.946127592285666 10.999999999999995
vertex 13.518450482468166 -17.053872407714326 10.999999999999995
vertex 13.518450482468166 12.946127592285666 10.999999999999995
endloop
endfacet
facet normal -1.0 0.0 0.0
outer loop
vertex 11.392704639106684 12.94612759228567 9.623625842811439
vertex 11.392704639106684 -17.053872407714334 -5.376374157188558
vertex 11.392704639106684 -17.053872407714334 9.623625842811439
endloop
endfacet
facet normal -1.0 0.0 0.0
outer loop
vertex 11.392704639106684 -17.053872407714334 -5.376374157188558
vertex 11.392704639106684 12.94612759228567 9.623625842811439
vertex 11.392704639106684 12.94612759228567 -5.376374157188558
endloop
endfacet
facet normal -1.0 0.0 0.0
outer loop
vertex 11.392704639106684 12.94612759228567 -5.376374157188558
vertex 11.392704639106684 12.94612759228567 9.623625842811439
vertex 11.392704639106684 12.94612759228567 -5.086828740974664
endloop
endfacet
facet normal 1.0 -0.0 -0.0
outer loop
vertex 13.518450482468166 12.946127592285666 10.999999999999995
vertex 13.518450482468166 -17.053872407714326 10.999999999999995
vertex 13.518450482468166 12.946127592285666 -7.0
endloop
endfacet
facet normal -3.48866439830503e-17 1.0 -1.4007422531854666e-17
outer loop
vertex -6.48154951753183 12.946127592285666 -7.0
vertex -4.607295360893316 12.94612759228567 -5.376374157188558
vertex 13.518450482468166 12.946127592285666 -7.0
endloop
endfacet
facet normal -3.48866439830503e-17 1.0 -1.4007422531854666e-17
outer loop
vertex -4.607295360893316 12.94612759228567 -5.376374157188558
vertex -6.48154951753183 12.946127592285666 -7.0
vertex -6.48154951753183 12.946127592285666 10.999999999999995
endloop
endfacet
facet normal -3.48866439830503e-17 1.0 -1.4007422531854666e-17
outer loop
vertex -4.607295360893316 12.94612759228567 -5.376374157188558
vertex -6.48154951753183 12.946127592285666 10.999999999999995
vertex -4.607295360893316 12.94612759228567 9.313171259025331
endloop
endfacet
facet normal -3.48866439830503e-17 1.0 -1.4007422531854666e-17
outer loop
vertex 13.518450482468166 12.946127592285666 -7.0
vertex 11.392704639106684 12.94612759228567 -5.376374157188558
vertex 11.392704639106684 12.94612759228567 -5.086828740974664
endloop
endfacet
facet normal -3.48866439830503e-17 1.0 -1.4007422531854666e-17
outer loop
vertex 11.392704639106684 12.94612759228567 -5.376374157188558
vertex 13.518450482468166 12.946127592285666 -7.0
vertex -4.607295360893316 12.94612759228567 -5.376374157188558
endloop
endfacet
endsolid model
