solid OpenSCAD_Model
  facet normal 1 0 0
    outer loop
      vertex -6.11155 20.4461 15.5
      vertex -6.11155 12.9461 11
      vertex -6.11155 20.4461 -11.5
    endloop
  endfacet
  facet normal 1 0 0
    outer loop
      vertex -6.11155 20.4461 15.5
      vertex -6.11155 -17.0539 11
      vertex -6.11155 12.9461 11
    endloop
  endfacet
  facet normal 1 0 0
    outer loop
      vertex -6.11155 -17.0539 11
      vertex -6.11155 -24.5539 15.5
      vertex -6.11155 -17.0539 -7
    endloop
  endfacet
  facet normal 1 -0 0
    outer loop
      vertex -6.11155 -24.5539 15.5
      vertex -6.11155 -17.0539 11
      vertex -6.11155 20.4461 15.5
    endloop
  endfacet
  facet normal 1 -0 0
    outer loop
      vertex -6.11155 12.9461 -7
      vertex -6.11155 20.4461 -11.5
      vertex -6.11155 12.9461 11
    endloop
  endfacet
  facet normal 1 -0 0
    outer loop
      vertex -6.11155 -17.0539 -7
      vertex -6.11155 20.4461 -11.5
      vertex -6.11155 12.9461 -7
    endloop
  endfacet
  facet normal 1 0 0
    outer loop
      vertex -6.11155 -17.0539 -7
      vertex -6.11155 -24.5539 -11.5
      vertex -6.11155 20.4461 -11.5
    endloop
  endfacet
  facet normal 1 0 0
    outer loop
      vertex -6.11155 -24.5539 -11.5
      vertex -6.11155 -17.0539 -7
      vertex -6.11155 -24.5539 15.5
    endloop
  endfacet
  facet normal -0 0 1
    outer loop
      vertex -6.21155 20.4461 15.5
      vertex -6.11155 -24.5539 15.5
      vertex -6.11155 20.4461 15.5
    endloop
  endfacet
  facet normal 0 0 1
    outer loop
      vertex -6.11155 -24.5539 15.5
      vertex -6.21155 20.4461 15.5
      vertex -6.21155 -24.5539 15.5
    endloop
  endfacet
  facet normal 0 0 -1
    outer loop
      vertex -6.21155 -24.5539 -11.5
      vertex -6.11155 20.4461 -11.5
      vertex -6.11155 -24.5539 -11.5
    endloop
  endfacet
  facet normal -0 0 -1
    outer loop
      vertex -6.11155 20.4461 -11.5
      vertex -6.21155 -24.5539 -11.5
      vertex -6.21155 20.4461 -11.5
    endloop
  endfacet
  facet normal 0 -1 0
    outer loop
      vertex -6.21155 -24.5539 -11.5
      vertex -6.11155 -24.5539 15.5
      vertex -6.21155 -24.5539 15.5
    endloop
  endfacet
  facet normal 0 -1 -0
    outer loop
      vertex -6.11155 -24.5539 15.5
      vertex -6.21155 -24.5539 -11.5
      vertex -6.11155 -24.5539 -11.5
    endloop
  endfacet
  facet normal -1 0 0
    outer loop
      vertex -6.21155 20.4461 -11.5
      vertex -6.21155 12.9461 -7
      vertex -6.21155 20.4461 15.5
    endloop
  endfacet
  facet normal -1 0 0
    outer loop
      vertex -6.21155 20.4461 -11.5
      vertex -6.21155 -17.0539 -7
      vertex -6.21155 12.9461 -7
    endloop
  endfacet
  facet normal -1 -0 0
    outer loop
      vertex -6.21155 -17.0539 -7
      vertex -6.21155 -24.5539 -11.5
      vertex -6.21155 -17.0539 11
    endloop
  endfacet
  facet normal -1 0 0
    outer loop
      vertex -6.21155 -24.5539 -11.5
      vertex -6.21155 -17.0539 -7
      vertex -6.21155 20.4461 -11.5
    endloop
  endfacet
  facet normal -1 0 0
    outer loop
      vertex -6.21155 12.9461 11
      vertex -6.21155 20.4461 15.5
      vertex -6.21155 12.9461 -7
    endloop
  endfacet
  facet normal -1 0 0
    outer loop
      vertex -6.21155 -17.0539 11
      vertex -6.21155 20.4461 15.5
      vertex -6.21155 12.9461 11
    endloop
  endfacet
  facet normal -1 0 0
    outer loop
      vertex -6.21155 -17.0539 11
      vertex -6.21155 -24.5539 15.5
      vertex -6.21155 20.4461 15.5
    endloop
  endfacet
  facet normal -1 0 0
    outer loop
      vertex -6.21155 -24.5539 15.5
      vertex -6.21155 -17.0539 11
      vertex -6.21155 -24.5539 -11.5
    endloop
  endfacet
  facet normal 0 1 -0
    outer loop
      vertex -6.11155 20.4461 -11.5
      vertex -6.21155 20.4461 15.5
      vertex -6.11155 20.4461 15.5
    endloop
  endfacet
  facet normal 0 1 0
    outer loop
      vertex -6.21155 20.4461 15.5
      vertex -6.11155 20.4461 -11.5
      vertex -6.21155 20.4461 -11.5
    endloop
  endfacet
  facet normal 1 0 0
    outer loop
      vertex 8.88845 20.4461 15.5
      vertex 8.88845 12.9461 11
      vertex 8.88845 20.4461 -11.5
    endloop
  endfacet
  facet normal 1 0 0
    outer loop
      vertex 8.88845 20.4461 15.5
      vertex 8.88845 -17.0539 11
      vertex 8.88845 12.9461 11
    endloop
  endfacet
  facet normal 1 0 0
    outer loop
      vertex 8.88845 -17.0539 11
      vertex 8.88845 -24.5539 15.5
      vertex 8.88845 -17.0539 -7
    endloop
  endfacet
  facet normal 1 -0 0
    outer loop
      vertex 8.88845 -24.5539 15.5
      vertex 8.88845 -17.0539 11
      vertex 8.88845 20.4461 15.5
    endloop
  endfacet
  facet normal 1 -0 0
    outer loop
      vertex 8.88845 12.9461 -7
      vertex 8.88845 20.4461 -11.5
      vertex 8.88845 12.9461 11
    endloop
  endfacet
  facet normal 1 -0 0
    outer loop
      vertex 8.88845 -17.0539 -7
      vertex 8.88845 20.4461 -11.5
      vertex 8.88845 12.9461 -7
    endloop
  endfacet
  facet normal 1 0 0
    outer loop
      vertex 8.88845 -17.0539 -7
      vertex 8.88845 -24.5539 -11.5
      vertex 8.88845 20.4461 -11.5
    endloop
  endfacet
  facet normal 1 0 0
    outer loop
      vertex 8.88845 -24.5539 -11.5
      vertex 8.88845 -17.0539 -7
      vertex 8.88845 -24.5539 15.5
    endloop
  endfacet
  facet normal -0 0 1
    outer loop
      vertex 8.78845 20.4461 15.5
      vertex 8.88845 -24.5539 15.5
      vertex 8.88845 20.4461 15.5
    endloop
  endfacet
  facet normal 0 0 1
    outer loop
      vertex 8.88845 -24.5539 15.5
      vertex 8.78845 20.4461 15.5
      vertex 8.78845 -24.5539 15.5
    endloop
  endfacet
  facet normal 0 0 -1
    outer loop
      vertex 8.78845 -24.5539 -11.5
      vertex 8.88845 20.4461 -11.5
      vertex 8.88845 -24.5539 -11.5
    endloop
  endfacet
  facet normal -0 0 -1
    outer loop
      vertex 8.88845 20.4461 -11.5
      vertex 8.78845 -24.5539 -11.5
      vertex 8.78845 20.4461 -11.5
    endloop
  endfacet
  facet normal 0 -1 0
    outer loop
      vertex 8.78845 -24.5539 -11.5
      vertex 8.88845 -24.5539 15.5
      vertex 8.78845 -24.5539 15.5
    endloop
  endfacet
  facet normal 0 -1 -0
    outer loop
      vertex 8.88845 -24.5539 15.5
      vertex 8.78845 -24.5539 -11.5
      vertex 8.88845 -24.5539 -11.5
    endloop
  endfacet
  facet normal -1 0 0
    outer loop
      vertex 8.78845 20.4461 -11.5
      vertex 8.78845 12.9461 -7
      vertex 8.78845 20.4461 15.5
    endloop
  endfacet
  facet normal -1 0 0
    outer loop
      vertex 8.78845 20.4461 -11.5
      vertex 8.78845 -17.0539 -7
      vertex 8.78845 12.9461 -7
    endloop
  endfacet
  facet normal -1 -0 0
    outer loop
      vertex 8.78845 -17.0539 -7
      vertex 8.78845 -24.5539 -11.5
      vertex 8.78845 -17.0539 11
    endloop
  endfacet
  facet normal -1 0 0
    outer loop
      vertex 8.78845 -24.5539 -11.5
      vertex 8.78845 -17.0539 -7
      vertex 8.78845 20.4461 -11.5
    endloop
  endfacet
  facet normal -1 0 0
    outer loop
      vertex 8.78845 12.9461 11
      vertex 8.78845 20.4461 15.5
      vertex 8.78845 12.9461 -7
    endloop
  endfacet
  facet normal -1 0 0
    outer loop
      vertex 8.78845 -17.0539 11
      vertex 8.78845 20.4461 15.5
      vertex 8.78845 12.9461 11
    endloop
  endfacet
  facet normal -1 0 0
    outer loop
      vertex 8.78845 -17.0539 11
      vertex 8.78845 -24.5539 15.5
      vertex 8.78845 20.4461 15.5
    endloop
  endfacet
  facet normal -1 0 0
    outer loop
      vertex 8.78845 -24.5539 15.5
      vertex 8.78845 -17.0539 11
      vertex 8.78845 -24.5539 -11.5
    endloop
  endfacet
  facet normal 0 1 -0
    outer loop
      vertex 8.88845 20.4461 -11.5
      vertex 8.78845 20.4461 15.5
      vertex 8.88845 20.4461 15.5
    endloop
  endfacet
  facet normal 0 1 0
    outer loop
      vertex 8.78845 20.4461 15.5
      vertex 8.88845 20.4461 -11.5
      vertex 8.78845 20.4461 -11.5
    endloop
  endfacet
  facet normal 1 0 0
    outer loop
      vertex 9.20845 20.4461 15.5
      vertex 9.20845 12.9461 11
      vertex 9.20845 20.4461 -11.5
    endloop
  endfacet
  facet normal 1 0 0
    outer loop
      vertex 9.20845 20.4461 15.5
      vertex 9.20845 -17.0539 11
      vertex 9.20845 12.9461 11
    endloop
  endfacet
  facet normal 1 0 0
    outer loop
      vertex 9.20845 -17.0539 11
      vertex 9.20845 -24.5539 15.5
      vertex 9.20845 -17.0539 -7
    endloop
  endfacet
  facet normal 1 -0 0
    outer loop
      vertex 9.20845 -24.5539 15.5
      vertex 9.20845 -17.0539 11
      vertex 9.20845 20.4461 15.5
    endloop
  endfacet
  facet normal 1 -0 0
    outer loop
      vertex 9.20845 12.9461 -7
      vertex 9.20845 20.4461 -11.5
      vertex 9.20845 12.9461 11
    endloop
  endfacet
  facet normal 1 -0 0
    outer loop
      vertex 9.20845 -17.0539 -7
      vertex 9.20845 20.4461 -11.5
      vertex 9.20845 12.9461 -7
    endloop
  endfacet
  facet normal 1 0 0
    outer loop
      vertex 9.20845 -17.0539 -7
      vertex 9.20845 -24.5539 -11.5
      vertex 9.20845 20.4461 -11.5
    endloop
  endfacet
  facet normal 1 0 0
    outer loop
      vertex 9.20845 -24.5539 -11.5
      vertex 9.20845 -17.0539 -7
      vertex 9.20845 -24.5539 15.5
    endloop
  endfacet
  facet normal -0 0 1
    outer loop
      vertex 9.10845 20.4461 15.5
      vertex 9.20845 -24.5539 15.5
      vertex 9.20845 20.4461 15.5
    endloop
  endfacet
  facet normal 0 0 1
    outer loop
      vertex 9.20845 -24.5539 15.5
      vertex 9.10845 20.4461 15.5
      vertex 9.10845 -24.5539 15.5
    endloop
  endfacet
  facet normal 0 0 -1
    outer loop
      vertex 9.10845 -24.5539 -11.5
      vertex 9.20845 20.4461 -11.5
      vertex 9.20845 -24.5539 -11.5
    endloop
  endfacet
  facet normal -0 0 -1
    outer loop
      vertex 9.20845 20.4461 -11.5
      vertex 9.10845 -24.5539 -11.5
      vertex 9.10845 20.4461 -11.5
    endloop
  endfacet
  facet normal 0 -1 0
    outer loop
      vertex 9.10845 -24.5539 -11.5
      vertex 9.20845 -24.5539 15.5
      vertex 9.10845 -24.5539 15.5
    endloop
  endfacet
  facet normal 0 -1 -0
    outer loop
      vertex 9.20845 -24.5539 15.5
      vertex 9.10845 -24.5539 -11.5
      vertex 9.20845 -24.5539 -11.5
    endloop
  endfacet
  facet normal -1 0 0
    outer loop
      vertex 9.10845 20.4461 -11.5
      vertex 9.10845 12.9461 -7
      vertex 9.10845 20.4461 15.5
    endloop
  endfacet
  facet normal -1 0 0
    outer loop
      vertex 9.10845 20.4461 -11.5
      vertex 9.10845 -17.0539 -7
      vertex 9.10845 12.9461 -7
    endloop
  endfacet
  facet normal -1 -0 0
    outer loop
      vertex 9.10845 -17.0539 -7
      vertex 9.10845 -24.5539 -11.5
      vertex 9.10845 -17.0539 11
    endloop
  endfacet
  facet normal -1 0 0
    outer loop
      vertex 9.10845 -24.5539 -11.5
      vertex 9.10845 -17.0539 -7
      vertex 9.10845 20.4461 -11.5
    endloop
  endfacet
  facet normal -1 0 0
    outer loop
      vertex 9.10845 12.9461 11
      vertex 9.10845 20.4461 15.5
      vertex 9.10845 12.9461 -7
    endloop
  endfacet
  facet normal -1 0 0
    outer loop
      vertex 9.10845 -17.0539 11
      vertex 9.10845 20.4461 15.5
      vertex 9.10845 12.9461 11
    endloop
  endfacet
  facet normal -1 0 0
    outer loop
      vertex 9.10845 -17.0539 11
      vertex 9.10845 -24.5539 15.5
      vertex 9.10845 20.4461 15.5
    endloop
  endfacet
  facet normal -1 0 0
    outer loop
      vertex 9.10845 -24.5539 15.5
      vertex 9.10845 -17.0539 11
      vertex 9.10845 -24.5539 -11.5
    endloop
  endfacet
  facet normal 0 1 -0
    outer loop
      vertex 9.20845 20.4461 -11.5
      vertex 9.10845 20.4461 15.5
      vertex 9.20845 20.4461 15.5
    endloop
  endfacet
  facet normal 0 1 0
    outer loop
      vertex 9.10845 20.4461 15.5
      vertex 9.20845 20.4461 -11.5
      vertex 9.10845 20.4461 -11.5
    endloop
  endfacet
  facet normal 1 0 0
    outer loop
      vertex 13.2084 20.4461 15.5
      vertex 13.2084 12.9461 11
      vertex 13.2084 20.4461 -11.5
    endloop
  endfacet
  facet normal 1 0 0
    outer loop
      vertex 13.2084 20.4461 15.5
      vertex 13.2084 -17.0539 11
      vertex 13.2084 12.9461 11
    endloop
  endfacet
  facet normal 1 0 0
    outer loop
      vertex 13.2084 -17.0539 11
      vertex 13.2084 -24.5539 15.5
      vertex 13.2084 -17.0539 -7
    endloop
  endfacet
  facet normal 1 -0 0
    outer loop
      vertex 13.2084 -24.5539 15.5
      vertex 13.2084 -17.0539 11
      vertex 13.2084 20.4461 15.5
    endloop
  endfacet
  facet normal 1 -0 0
    outer loop
      vertex 13.2084 12.9461 -7
      vertex 13.2084 20.4461 -11.5
      vertex 13.2084 12.9461 11
    endloop
  endfacet
  facet normal 1 -0 0
    outer loop
      vertex 13.2084 -17.0539 -7
      vertex 13.2084 20.4461 -11.5
      vertex 13.2084 12.9461 -7
    endloop
  endfacet
  facet normal 1 0 0
    outer loop
      vertex 13.2084 -17.0539 -7
      vertex 13.2084 -24.5539 -11.5
      vertex 13.2084 20.4461 -11.5
    endloop
  endfacet
  facet normal 1 0 0
    outer loop
      vertex 13.2084 -24.5539 -11.5
      vertex 13.2084 -17.0539 -7
      vertex 13.2084 -24.5539 15.5
    endloop
  endfacet
  facet normal -0 0 1
    outer loop
      vertex 13.1084 20.4461 15.5
      vertex 13.2084 -24.5539 15.5
      vertex 13.2084 20.4461 15.5
    endloop
  endfacet
  facet normal 0 0 1
    outer loop
      vertex 13.2084 -24.5539 15.5
      vertex 13.1084 20.4461 15.5
      vertex 13.1084 -24.5539 15.5
    endloop
  endfacet
  facet normal 0 0 -1
    outer loop
      vertex 13.1084 -24.5539 -11.5
      vertex 13.2084 20.4461 -11.5
      vertex 13.2084 -24.5539 -11.5
    endloop
  endfacet
  facet normal -0 0 -1
    outer loop
      vertex 13.2084 20.4461 -11.5
      vertex 13.1084 -24.5539 -11.5
      vertex 13.1084 20.4461 -11.5
    endloop
  endfacet
  facet normal 0 -1 0
    outer loop
      vertex 13.1084 -24.5539 -11.5
      vertex 13.2084 -24.5539 15.5
      vertex 13.1084 -24.5539 15.5
    endloop
  endfacet
  facet normal 0 -1 -0
    outer loop
      vertex 13.2084 -24.5539 15.5
      vertex 13.1084 -24.5539 -11.5
      vertex 13.2084 -24.5539 -11.5
    endloop
  endfacet
  facet normal -1 0 0
    outer loop
      vertex 13.1084 20.4461 -11.5
      vertex 13.1084 12.9461 -7
      vertex 13.1084 20.4461 15.5
    endloop
  endfacet
  facet normal -1 0 0
    outer loop
      vertex 13.1084 20.4461 -11.5
      vertex 13.1084 -17.0539 -7
      vertex 13.1084 12.9461 -7
    endloop
  endfacet
  facet normal -1 -0 0
    outer loop
      vertex 13.1084 -17.0539 -7
      vertex 13.1084 -24.5539 -11.5
      vertex 13.1084 -17.0539 11
    endloop
  endfacet
  facet normal -1 0 0
    outer loop
      vertex 13.1084 -24.5539 -11.5
      vertex 13.1084 -17.0539 -7
      vertex 13.1084 20.4461 -11.5
    endloop
  endfacet
  facet normal -1 0 0
    outer loop
      vertex 13.1084 12.9461 11
      vertex 13.1084 20.4461 15.5
      vertex 13.1084 12.9461 -7
    endloop
  endfacet
  facet normal -1 0 0
    outer loop
      vertex 13.1084 -17.0539 11
      vertex 13.1084 20.4461 15.5
      vertex 13.1084 12.9461 11
    endloop
  endfacet
  facet normal -1 0 0
    outer loop
      vertex 13.1084 -17.0539 11
      vertex 13.1084 -24.5539 15.5
      vertex 13.1084 20.4461 15.5
    endloop
  endfacet
  facet normal -1 0 0
    outer loop
      vertex 13.1084 -24.5539 15.5
      vertex 13.1084 -17.0539 11
      vertex 13.1084 -24.5539 -11.5
    endloop
  endfacet
  facet normal 0 1 -0
    outer loop
      vertex 13.2084 20.4461 -11.5
      vertex 13.1084 20.4461 15.5
      vertex 13.2084 20.4461 15.5
    endloop
  endfacet
  facet normal 0 1 0
    outer loop
      vertex 13.1084 20.4461 15.5
      vertex 13.2084 20.4461 -11.5
      vertex 13.1084 20.4461 -11.5
    endloop
  endfacet
  facet normal 0 -1 0
    outer loop
      vertex -6.48155 -17.0539 -7
      vertex -6.21155 -17.0539 11
      vertex -6.48155 -17.0539 11
    endloop
  endfacet
  facet normal 0 -1 -0
    outer loop
      vertex -6.21155 -17.0539 11
      vertex -6.48155 -17.0539 -7
      vertex -6.21155 -17.0539 -7
    endloop
  endfacet
  facet normal 0 -1 0
    outer loop
      vertex 13.2084 -17.0539 -7
      vertex 13.5184 -17.0539 11
      vertex 13.2084 -17.0539 11
    endloop
  endfacet
  facet normal 0 -1 -0
    outer loop
      vertex 13.5184 -17.0539 11
      vertex 13.2084 -17.0539 -7
      vertex 13.5184 -17.0539 -7
    endloop
  endfacet
  facet normal 0 -1 0
    outer loop
      vertex -6.11155 -17.0539 -7
      vertex 8.78845 -17.0539 11
      vertex -6.11155 -17.0539 11
    endloop
  endfacet
  facet normal 0 -1 -0
    outer loop
      vertex 8.78845 -17.0539 11
      vertex -6.11155 -17.0539 -7
      vertex 8.78845 -17.0539 -7
    endloop
  endfacet
  facet normal 0 -1 0
    outer loop
      vertex 8.88845 -17.0539 -7
      vertex 9.10845 -17.0539 11
      vertex 8.88845 -17.0539 11
    endloop
  endfacet
  facet normal 0 -1 -0
    outer loop
      vertex 9.10845 -17.0539 11
      vertex 8.88845 -17.0539 -7
      vertex 9.10845 -17.0539 -7
    endloop
  endfacet
  facet normal 0 -1 0
    outer loop
      vertex 9.20845 -17.0539 -7
      vertex 13.1084 -17.0539 11
      vertex 9.20845 -17.0539 11
    endloop
  endfacet
  facet normal 0 -1 -0
    outer loop
      vertex 13.1084 -17.0539 11
      vertex 9.20845 -17.0539 -7
      vertex 13.1084 -17.0539 -7
    endloop
  endfacet
  facet normal -0 0 1
    outer loop
      vertex -6.48155 12.9461 11
      vertex -6.21155 -17.0539 11
      vertex -6.21155 12.9461 11
    endloop
  endfacet
  facet normal 0 0 1
    outer loop
      vertex -6.21155 -17.0539 11
      vertex -6.48155 12.9461 11
      vertex -6.48155 -17.0539 11
    endloop
  endfacet
  facet normal -0 0 1
    outer loop
      vertex 13.2084 12.9461 11
      vertex 13.5184 -17.0539 11
      vertex 13.5184 12.9461 11
    endloop
  endfacet
  facet normal 0 0 1
    outer loop
      vertex 13.5184 -17.0539 11
      vertex 13.2084 12.9461 11
      vertex 13.2084 -17.0539 11
    endloop
  endfacet
  facet normal -0 0 1
    outer loop
      vertex -6.11155 12.9461 11
      vertex 8.78845 -17.0539 11
      vertex 8.78845 12.9461 11
    endloop
  endfacet
  facet normal 0 0 1
    outer loop
      vertex 8.78845 -17.0539 11
      vertex -6.11155 12.9461 11
      vertex -6.11155 -17.0539 11
    endloop
  endfacet
  facet normal -0 0 1
    outer loop
      vertex 8.88845 12.9461 11
      vertex 9.10845 -17.0539 11
      vertex 9.10845 12.9461 11
    endloop
  endfacet
  facet normal 0 0 1
    outer loop
      vertex 9.10845 -17.0539 11
      vertex 8.88845 12.9461 11
      vertex 8.88845 -17.0539 11
    endloop
  endfacet
  facet normal -0 0 1
    outer loop
      vertex 9.20845 12.9461 11
      vertex 13.1084 -17.0539 11
      vertex 13.1084 12.9461 11
    endloop
  endfacet
  facet normal 0 0 1
    outer loop
      vertex 13.1084 -17.0539 11
      vertex 9.20845 12.9461 11
      vertex 9.20845 -17.0539 11
    endloop
  endfacet
  facet normal 0 0 -1
    outer loop
      vertex -6.48155 -17.0539 -7
      vertex -6.21155 12.9461 -7
      vertex -6.21155 -17.0539 -7
    endloop
  endfacet
  facet normal -0 0 -1
    outer loop
      vertex -6.21155 12.9461 -7
      vertex -6.48155 -17.0539 -7
      vertex -6.48155 12.9461 -7
    endloop
  endfacet
  facet normal 0 0 -1
    outer loop
      vertex 13.2084 -17.0539 -7
      vertex 13.5184 12.9461 -7
      vertex 13.5184 -17.0539 -7
    endloop
  endfacet
  facet normal -0 0 -1
    outer loop
      vertex 13.5184 12.9461 -7
      vertex 13.2084 -17.0539 -7
      vertex 13.2084 12.9461 -7
    endloop
  endfacet
  facet normal 0 0 -1
    outer loop
      vertex -6.11155 -17.0539 -7
      vertex 8.78845 12.9461 -7
      vertex 8.78845 -17.0539 -7
    endloop
  endfacet
  facet normal -0 0 -1
    outer loop
      vertex 8.78845 12.9461 -7
      vertex -6.11155 -17.0539 -7
      vertex -6.11155 12.9461 -7
    endloop
  endfacet
  facet normal 0 0 -1
    outer loop
      vertex 8.88845 -17.0539 -7
      vertex 9.10845 12.9461 -7
      vertex 9.10845 -17.0539 -7
    endloop
  endfacet
  facet normal -0 0 -1
    outer loop
      vertex 9.10845 12.9461 -7
      vertex 8.88845 -17.0539 -7
      vertex 8.88845 12.9461 -7
    endloop
  endfacet
  facet normal 0 0 -1
    outer loop
      vertex 9.20845 -17.0539 -7
      vertex 13.1084 12.9461 -7
      vertex 13.1084 -17.0539 -7
    endloop
  endfacet
  facet normal -0 0 -1
    outer loop
      vertex 13.1084 12.9461 -7
      vertex 9.20845 -17.0539 -7
      vertex 9.20845 12.9461 -7
    endloop
  endfacet
  facet normal 0 1 -0
    outer loop
      vertex -6.21155 12.9461 -7
      vertex -6.48155 12.9461 11
      vertex -6.21155 12.9461 11
    endloop
  endfacet
  facet normal 0 1 0
    outer loop
      vertex -6.48155 12.9461 11
      vertex -6.21155 12.9461 -7
      vertex -6.48155 12.9461 -7
    endloop
  endfacet
  facet normal 0 1 -0
    outer loop
      vertex 13.5184 12.9461 -7
      vertex 13.2084 12.9461 11
      vertex 13.5184 12.9461 11
    endloop
  endfacet
  facet normal 0 1 0
    outer loop
      vertex 13.2084 12.9461 11
      vertex 13.5184 12.9461 -7
      vertex 13.2084 12.9461 -7
    endloop
  endfacet
  facet normal 0 1 -0
    outer loop
      vertex 8.78845 12.9461 -7
      vertex -6.11155 12.9461 11
      vertex 8.78845 12.9461 11
    endloop
  endfacet
  facet normal 0 1 0
    outer loop
      vertex -6.11155 12.9461 11
      vertex 8.78845 12.9461 -7
      vertex -6.11155 12.9461 -7
    endloop
  endfacet
  facet normal 0 1 -0
    outer loop
      vertex 9.10845 12.9461 -7
      vertex 8.88845 12.9461 11
      vertex 9.10845 12.9461 11
    endloop
  endfacet
  facet normal 0 1 0
    outer loop
      vertex 8.88845 12.9461 11
      vertex 9.10845 12.9461 -7
      vertex 8.88845 12.9461 -7
    endloop
  endfacet
  facet normal 0 1 -0
    outer loop
      vertex 13.1084 12.9461 -7
      vertex 9.20845 12.9461 11
      vertex 13.1084 12.9461 11
    endloop
  endfacet
  facet normal 0 1 0
    outer loop
      vertex 9.20845 12.9461 11
      vertex 13.1084 12.9461 -7
      vertex 9.20845 12.9461 -7
    endloop
  endfacet
  facet normal 1 -0 0
    outer loop
      vertex 13.5184 -17.0539 11
      vertex 13.5184 12.9461 -7
      vertex 13.5184 12.9461 11
    endloop
  endfacet
  facet normal 1 0 0
    outer loop
      vertex 13.5184 12.9461 -7
      vertex 13.5184 -17.0539 11
      vertex 13.5184 -17.0539 -7
    endloop
  endfacet
  facet normal -1 0 0
    outer loop
      vertex -6.48155 -17.0539 -7
      vertex -6.48155 12.9461 11
      vertex -6.48155 12.9461 -7
    endloop
  endfacet
  facet normal -1 -0 0
    outer loop
      vertex -6.48155 12.9461 11
      vertex -6.48155 -17.0539 -7
      vertex -6.48155 -17.0539 11
    endloop
  endfacet
endsolid OpenSCAD_Model
